Equipment,Division,WeightClassKg,Name,Best3SquatKg,Best3BenchKg,Best3DeadliftKg,TotalKg,BodyweightKg,BirthDate,Sex,Event,Place
Wraps,Amateur Open,67.5,Stacey Bellizzi,99.79,54.43,102.06,256.28,63.96,1987-09-25,F,SBD,1
Wraps,Amateur Open,67.5,Carolyn Picci,77.11,52.16,95.25,224.53,64.64,1975-08-31,F,SBD,2
Wraps,Amateur Open,75,Stephanie Hogan,117.93,56.7,140.61,315.25,70.31,1997-05-13,F,SBD,1
Wraps,Amateur Open,110,Alexandra Caruso,136.08,61.23,122.47,319.78,100.7,1997-01-01,F,SBD,1
Wraps,Amateur Submasters 33-39,52,Christel Campanella,88.45,49.9,120.2,258.55,51.03,1985-11-18,F,SBD,1
Wraps,Amateur Masters 40-44,52,Carmen Barrios,79.38,52.16,115.67,247.21,50.8,1982-07-12,F,SBD,1
Wraps,Amateur Masters 40-44,67.5,Melissa Leone,108.86,56.7,167.83,333.39,64.86,1980-03-15,F,SBD,1
Wraps,Amateur Masters 45-49,60,Katie Miller #2,77.11,56.7,113.4,247.21,59.42,1977-07-03,F,SBD,1
Wraps,Amateur Masters 50-54,56,Heather Howell,58.97,40.82,106.59,206.38,55.79,1969-10-25,F,SBD,1
Wraps,Amateur Masters 55-59,52,Jennifer Champagne,90.72,47.63,124.74,263.08,50.58,,F,SBD,1
Wraps,Amateur Masters 70-74,56,Mary Duffy,81.65,54.43,108.86,244.94,52.16,1949-07-10,F,SBD,1
Wraps,Amateur Teen 13,67.5,Thomas Weigle,142.88,113.4,191.64,447.92,66.22,,M,SBD,1
Wraps,Amateur Masters 60-64,100,Joe Avigliano,226.8,117.93,206.38,551.11,99.79,1959-11-20,M,SBD,1
Wraps,Amateur Masters 65-69,110,William Bergeron,90.72,56.7,124.74,272.16,106.59,1954-04-08,M,SBD,1
Multi-ply,Amateur Masters 50-54,90,Robert Clark,290.3,163.29,294.84,748.43,89.81,1970-01-31,M,SBD,1
Raw,Amateur Masters 60-64,67.5,Anthony Luciano,,63.5,102.06,165.56,67.13,1959-06-30,M,BD,1
Multi-ply,Pro Juniors 20-23,100,Michael Galiano,,,256.28,256.28,94.8,2001-12-22,M,D,1
