WeightClassKg,Sex,Event,Place,Name,Country,Division,BirthYear,Equipment,BodyweightKg,Squat1Kg,Squat2Kg,Squat3Kg,Squat4Kg,Best3SquatKg,Bench1Kg,Bench2Kg,Bench3Kg,Bench4Kg,Best3BenchKg,Deadlift1Kg,Deadlift2Kg,Deadlift3Kg,Deadlift4Kg,Best3DeadliftKg,TotalKg
75,M,B,1,Abu Chaudhury,,M_JR_WPC,1991,Raw,69.1,,,,,,140,145,-147.5,,145,,,,,,145
90,M,SBD,2,Adam Browne #1,,M_MR_1_WPC,,Raw,88.2,-120,120,140,,140,140,150,-157.5,,150,160,170,-210,,170,460
90,M,B,4,Adam Browne #1,,M_MR_1_WPC,1973,Raw,87.5,,,,,,145,152.5,-157.5,,152.5,,,,,,152.5
140,M,B,1,Adam Nalewajk,,M_OES_WPC,1987,Single-ply,139.8,,,,,,100,-155,-155,,100,,,,,,100
90,M,B,6,Agil Humbatov,,M_OR_WPC,1985,Raw,87,,,,,,160,172.5,-180,,172.5,,,,,,172.5
90,M,D,5,Agil Humbatov,,M_OR_WPC,1985,Raw,87,,,,,,,,,,,230,255,-275,,255,255
90,M,D,1,Agil Humbatov,,M_OES_WPC,1985,Single-ply,86.4,,,,,,,,,,,220,,,,220,220
125,M,B,2,Agnis Beirs,,M_OEM_WPC,1981,Multi-ply,120.2,,,,,,240,255,262.5,,262.5,,,,,,262.5
90,M,SBD,2,Aigars Jaņēvičs,,M_OR_WPC,,Raw,89.2,220,230,240,,240,175,182.5,-185,,182.5,250,265,-275,,265,687.5
110,M,B,1,Aigars Polis,,M_MEM_3_WPC,1962,Multi-ply,106.2,,,,,,-210,-210,210,,210,,,,,,210
82.5,M,B,1,Aigars Skrebeļs,,M_MR_1_WPC,1971,Raw,79.4,,,,,,140,145,-150,,145,,,,,,145
52,M,B,1,Aigars Višņevskis,,M_MR_2_WPC,1967,Raw,43.5,,,,,,107.5,112.5,117.5,,117.5,,,,,,117.5
75,M,B,2,Agshin İsmayilov,,M_OEM_WPC,1978,Multi-ply,75,,,,,,210,232.5,-242.5,,232.5,,,,,,232.5
110,M,SBD,1,Aldis Kampāns,,M_MES_2_WPC,,Single-ply,104.5,200,210,-220,,210,145,152.5,-157.5,,152.5,210,220,-230,,220,582.5
75,M,B,3,Aleksandr Rabinovich,,M_OR_WPC,1967,Raw,74.2,,,,,,157.5,167.5,170,,170,,,,,,170
75,M,B,1,Aleksandr Rabinovich,,M_MR_2_WPC,1967,Raw,74.2,,,,,,157.5,167.5,170,,170,,,,,,170
75,M,B,1,Aleksandr Rabinovich,,M_MES_2_WPC,1967,Single-ply,75,,,,,,165,175,182.5,,182.5,,,,,,182.5
60,M,SBD,1,Aleksandr Romanichev,,M_MEM_3_WPC,,Multi-ply,59.5,200,220,,,220,125,132.5,-140,,132.5,205,225,,,225,577.5
56,M,B,1,Aleksandr Romanichev,,M_MR_3_WPC,1963,Raw,55.9,,,,,,102.5,110,112.5,115,112.5,,,,,,112.5
60,M,B,1,Aleksandr Romanichev,,M_MEM_3_WPC,1963,Multi-ply,58,,,,,,122.5,125,130,,130,,,,,,130
56,M,D,1,Aleksandr Romanichev,,M_MR_3_WPC,1963,Raw,55.9,,,,,,,,,,,180,190,-200,,190,190
60,M,D,1,Aleksandr Romanichev,,M_MEM_3_WPC,1963,Multi-ply,58,,,,,,,,,,,200,220,,,220,220
125,M,B,1,Aleksandr Sykmenyov,,M_OES_WPC,1978,Single-ply,112.8,,,,,,335,355,-360,,355,,,,,,355
125,M,SBD,2,Aleksandr Teterin,,M_MR_1_WPC,,Raw,113.3,115,125,132.5,,132.5,75,80,85,,85,180,195,200,,200,417.5
90,M,SBD,1,Aleksandr Tsvetkov,,M_MR_4_WPC,,Raw,89.6,200,212.5,221,,221,115,-120,120,,120,220,245,-251,,245,586
100,M,D,1,Aleksandr Tsvetkov,,M_MR_4_WPC,1957,Raw,91.3,,,,,,,,,,,220,247.5,252.5,,252.5,252.5
140,M,SBD,1,Aleksandr Zaytsev,,M_OR_WPC,,Raw,130.1,310,330,350,,350,230,250,-255,,250,300,-330,-330,,300,900
125,M,SBD,3,Aleksandrs Aleksejevs,,M_OR_WPC,,Raw,124.2,280,300,,,300,205,210,215,,215,330,345,355,,355,870
125,M,D,1,Aleksandrs Aleksejevs,,M_OR_WPC,1980,Raw,124.7,,,,,,,,,,,340,-355,-355,,340,340
90,M,SBD,1,Aleksandrs Antipovs,,M_JR_WPC,,Raw,88.4,190,200,210,,210,155,165,170,,170,260,270,275,,275,655
90,M,D,2,Aleksandrs Arkhipovs,,M_JR_WPC,1992,Raw,87.5,,,,,,,,,,,250,-270,280,,280,280
82.5,M,B,5,Aleksandrs Beketovs,,M_OR_WPC,1985,Raw,80,,,,,,150,160,-167.5,,160,,,,,,160
90,M,B,1,Aleksandrs Ņikitins,,M_OES_WPC,1980,Single-ply,90,,,,,,-230,-230,230,,230,,,,,,230
140,M,SBD,DQ,Aleksey Ermakov,,M_OR_WPC,,Raw,129,260,-280,-280,,260,185,-195,,,185,-270,-270,-270,,,
140,M,SBD,DQ,Aleksey Ermakov,,M_MR_1_WPC,,Raw,129,260,-280,-280,,260,185,-195,,,185,-270,-270,-270,,,
125,M,SBD,2,Aleksey Ventsov,,M_OEM_WPC,,Multi-ply,119.2,330,350,360,,360,230,250,-262.5,,250,320,335,-347.5,,335,945
125,M,D,1,Aleksey Ventsov,,M_OEM_WPC,1981,Multi-ply,121.2,,,,,,,,,,,320,340,352.5,,352.5,352.5
110,M,B,10,Alexandar Pelovski,,M_OR_WPC,1991,Raw,109.4,,,,,,-195,197.5,-200,,197.5,,,,,,197.5
110,M,D,1,Alexandar Pelovski,,M_JES_WPC,1991,Single-ply,109.9,,,,,,,,,,,285,302.5,-316,,302.5,302.5
82.5,M,B,1,Alexander Papir,,M_MR_6_WPC,1945,Raw,78.9,,,,,,100,105,107.5,,107.5,,,,,,107.5
82.5,M,B,1,Alexander Papir,,M_MES_6_WPC,1945,Single-ply,80,,,,,,110,117.5,-122.5,,117.5,,,,,,117.5
82.5,M,D,1,Alexander Papir,,M_MR_6_WPC,1945,Raw,78.9,,,,,,,,,,,150,,,,150,150
82.5,M,D,1,Alexander Papir,,M_MES_6_WPC,1945,Single-ply,79.6,,,,,,,,,,,160,170,177.5,,177.5,177.5
90,M,B,1,Alexander Petrov,,M_MR_3_WPC,1960,Raw,89.1,,,,,,190,200,-205,,200,,,,,,200
110,M,D,3,Alexander Siljestromer,,M_OR_WPC,1984,Raw,107.3,,,,,,,,,,,280,302.5,-310,,302.5,302.5
75,M,B,3,Alexandr Bark,,M_MR_3_WPC,1963,Raw,74.2,,,,,,105,110,-112.5,,110,,,,,,110
140,M,B,5,Alexey Brazhkin,,M_MR_1_WPC,1971,Raw,129.9,,,,,,170,180,200,,200,,,,,,200
140,M,B,2,Alexey Brazhkin,,M_MEM_1_WPC,1971,Multi-ply,131.8,,,,,,230,250,270,,270,,,,,,270
60,F,SBD,1,Alina Sazonova,,F_OR_WPC,,Raw,58,90,100,110,,110,55,60,-65,,60,100,110,120,,120,290
110,M,B,2,Allan Valdemar Jokinen,,M_OR_WPC,1981,Raw,104.2,,,,,,230,235,-242.5,,235,,,,,,235
90,M,SBD,5,Almands Mihailovs,,M_OR_WPC,,Raw,89,220,235,242.5,,242.5,135,150,155,,155,230,-245,245,,245,642.5
75,F,SBD,2,Anastasija Rezajeva,,F_JR_WPC,,Raw,69.7,70,82.5,92.5,,92.5,50,60,,,60,125,132.5,140,,140,292.5
67.5,F,D,1,Anastasija Rezajeva,,F_JR_WPC,1991,Raw,66,,,,,,,,,,,122.5,130,135,,135,135
67.5,M,D,1,Anatoliy Bochkovskyy,,M_MR_5_WPC,1954,Raw,67.1,,,,,,,,,,,-187.5,,187.5,,187.5,187.5
125,M,B,3,Anatoliy Evgrafov,,M_MR_3_WPC,1960,Raw,116.6,,,,,,-165,165,175,,175,,,,,,175
125,M,D,1,Anatoliy Evgrafov,,M_MR_3_WPC,1960,Raw,116.6,,,,,,,,,,,245,255,265,,265,265
75,M,B,1,Anatoliy Nefedov,,M_MR_3_WPC,1963,Raw,70.2,,,,,,140,150,,,150,,,,,,150
125,M,D,3,Andis Kaspars,,M_OES_WPC,1976,Single-ply,116.5,,,,,,,,,,,280,-300,,,280,280
75,M,SBD,2,Andre Martins Rei,,M_JEM_WPC,,Multi-ply,72.3,-225,-225,225,,225,140,152.5,160,,160,205,220,230,,230,615
67.5,M,D,1,Andre Martins Rei,,M_JEM_WPC,1993,Multi-ply,66.5,,,,,,,,,,,-200,220,225,-230,225,225
100,M,D,1,Andreas Schmidt,,M_MR_1_WPC,1971,Raw,94.4,,,,,,,,,,,210,220,237.5,,237.5,237.5
125,M,B,5,Andrejs Greņs,,M_OR_WPC,1981,Raw,119.2,,,,,,-170,170,182.5,,182.5,,,,,,182.5
140,M,B,2,Andrejs Mūrnieks,,M_OR_WPC,1980,Raw,134.4,,,,,,265,-270,,,265,,,,,,265
67.5,M,SBD,1,Andrey Kim #1,,M_OR_WPC,,Raw,65.7,190,200,210,,210,140,152.5,160,,160,230,245,-266,,245,615
67.5,M,B,3,Andrey Kim #1,,M_OR_WPC,1986,Raw,65,,,,,,150,-155,-155,,150,,,,,,150
90,M,SBD,3,Andriy Galkevich,,M_OR_WPC,,Raw,89.2,235,242.5,255,,255,150,165,175,,175,230,242.5,255,,255,685
90,M,SBD,1,Andriy Galkevich,,M_MR_1_WPC,,Raw,89.2,235,242.5,255,,255,150,165,175,,175,230,242.5,255,,255,685
90+,F,SBD,1,Ann Christin Öberg,,F_OR_WPC,,Raw,92.3,125,135,145,,145,102.5,112.5,,,112.5,170,185,192.5,200,192.5,450
67.5,F,SBD,2,Anna Sokolov,,F_OR_WPC,,Raw,65.8,100,110,-115,,110,55,60,65,,65,130,140,150,,150,325
67.5,F,D,2,Anna Sokolov,,F_OR_WPC,1979,Raw,65.4,,,,,,,,,,,130,140,-152.5,,140,140
90+,F,B,1,Anna-Maria Rosén,,F_MR_1_WPC,1972,Raw,92.5,,,,,,115,125,130,-136,130,,,,,,130
90+,F,D,1,Anna-Maria Rosén,,F_MR_1_WPC,1972,Raw,92.5,,,,,,,,,,,200,210,221,,221,221
110,M,SBD,1,Anthony Giddings,,M_MEM_1_WPC,,Multi-ply,109,-330,-330,330,,330,220,230,-250,,230,300,-320,,,300,860
75,M,B,6,Anthony Zawalij,UK,M_OR_WPC,1981,Raw,72.6,,,,,,105,112.5,-117.5,,112.5,,,,,,112.5
75,M,D,2,Anthony Zawalij,UK,M_OR_WPC,1981,Raw,72.6,,,,,,,,,,,202.5,-212.5,-212.5,,202.5,202.5
56,F,SBD,1,Ariela Amitay,,F_MEM_3_WPC,,Multi-ply,55.3,-145,145,160,,160,105,110,114,117.5,114,145,-155,155,,155,429
56,F,B,1,Ariela Amitay,,F_MEM_3_WPC,1964,Multi-ply,55.6,,,,,,105,110,115,,115,,,,,,115
125,M,SBD,1,Aris Kalva,,M_TR_2_WPC,,Raw,118.9,180,197.5,-202.5,,197.5,120,-125,,,120,240,251,-260,,251,568.5
125,M,D,1,Aris Kalva,,M_TR_2_WPC,1997,Raw,116.7,,,,,,,,,,,240,-250,255,,255,255
67.5,M,SBD,2,Artem Sinitsyn,,M_TR_2_WPC,,Raw,65.4,145,155,162.5,,162.5,80,-90,90,,90,150,157.5,167.5,,167.5,420
75,M,B,5,Arttu Aleksi Wahlström,,M_OR_WPC,1986,Raw,74.3,,,,,,135,142.5,150,,150,,,,,,150
125,M,SBD,1,Artur Chrząszcz,,M_OES_WPC,,Single-ply,122.4,380,-410,410,,410,250,280,-290,,280,320,-330,-330,,320,1010
100,M,B,2,Arturas Virbickas,,M_MR_3_WPC,1964,Raw,97.6,,,,,,170,180,-195,,180,,,,,,180
100,M,B,2,Artūrs Mugdenko,,M_MR_1_WPC,1971,Raw,93.2,,,,,,185,-190,190,,190,,,,,,190
75,M,B,1,Arvīds Sparbergs,,M_MR_6_WPC,1945,Raw,69.6,,,,,,75,80,85,,85,,,,,,85
110,M,D,2,Atis Zembahs,,M_OES_WPC,1988,Single-ply,110,,,,,,,,,,,300,320,-337.5,,320,320
110,M,SBD,1,Austris Šaicāns,,M_OES_WPC,,Single-ply,109.9,300,320,340,,340,205,215,225,,225,310,325,335,,335,900
67.5,F,D,2,Baiba Ramlava,,F_JR_WPC,1992,Raw,65.4,,,,,,,,,,,100,110,115,,115,115
56,F,SBD,1,Baiba Tone,,F_JR_WPC,,Raw,55.5,80,87.5,92.5,,92.5,45,50,-52.5,,50,90,100,110,,110,252.5
60,F,B,2,Baltutyte Inga,,F_OR_WPC,1990,Raw,59.8,,,,,,60,-65,,,60,,,,,,60
82.5,M,B,1,Bayram Aliev,,M_OEM_WPC,1985,Multi-ply,82.4,,,,,,220,235,245,,245,,,,,,245
110,M,D,1,Bogdans Topcijs,,M_MR_2_WPC,1968,Raw,105.9,,,,,,,,,,,-260,-260,260,,260,260
110,M,B,1,Boris Doktorovich,,M_MR_5_WPC,1950,Raw,107.9,,,,,,100,-110,-110,,100,,,,,,100
110,M,D,1,Boris Doktorovich,,M_MR_5_WPC,1950,Raw,107.9,,,,,,,,,,,130,140,150,,150,150
75,M,B,1,Boriss Laisin,,M_MR_5_WPC,1950,Raw,69.7,,,,,,100,105,107.5,110,107.5,,,,,,107.5
75,M,D,1,Boriss Laisin,,M_MR_6_WPC,1950,Raw,69.7,,,,,,,,,,,145,152.5,155,,155,155
110,M,SBD,2,Bruno Ricardo Ruela Alves,,M_OEM_WPC,,Multi-ply,107.5,-300,300,320,,320,245,260,-275,,260,270,290,-300,,290,870
110,M,B,3,Bruno Ricardo Ruela Alves,,M_OEM_WPC,1988,Multi-ply,106.5,,,,,,240,255,270,,270,,,,,,270
67.5,F,SBD,4,Dace Suharzevska,,F_OR_WPC,,Raw,64.8,95,100,-105,,100,55,60,-62.5,,60,-115,120,125,,125,285
67.5,F,B,1,Dagmar Liptáková,,F_OEM_WPC,1976,Multi-ply,63.2,,,,,,125,-135,-135,,125,,,,,,125
125,M,SBD,1,Dainis Polis,,M_MR_4_WPC,,Raw,117,200,225,-251,,225,160,175,-190,,175,245,-260,,,245,645
75,M,SBD,1,Daniel Shearly,,M_OR_WPC,,Raw,73.8,160,-180,-180,,160,125,135,-140,,135,225,235,-240,,235,530
100,M,SBD,1,Daniel Shepheard,,M_TR_3_WPC,,Raw,95.4,180,182.5,200,,200,155,162.5,-170,,162.5,240,260,272.5,,272.5,635
90,M,SBD,1,Daniel Tatarka,,M_OEM_WPC,,Multi-ply,88.1,305,-320,-320,,305,205,-217.5,-217.5,,205,240,265,275,,275,785
82.5,M,B,1,Daņiils Maļavkins,,M_TR_1_WPC,1999,Raw,80.6,,,,,,112.5,117.5,120,-122.5,120,,,,,,120
125,M,B,7,Darius Janutis,,M_OR_WPC,1986,Raw,113,,,,,,170,180,-200,,180,,,,,,180
100,M,B,2,David Gibson #2,UK,M_MR_2_WPC,1966,Raw,95.1,,,,,,-140,140,-150,,140,,,,,,140
75,M,SBD,1,David Oliveira,,M_JEM_WPC,,Multi-ply,70.7,240,-270,-270,,240,140,147.5,152.5,,152.5,225,245,-260,,245,637.5
110,M,SBD,2,David Satsielasjvili,,M_OES_WPC,,Single-ply,108.6,-210,270,,,270,180,190,200,,200,240,-250,,,240,710
140+,M,SBD,1,Denis Bondarenko,,M_OR_WPC,,Raw,140.1,260,270,280,,280,200,210,212.5,,212.5,240,260,280,,280,772.5
110,M,B,4,Deniss Haritesku,,M_OR_WPC,1989,Raw,107.5,,,,,,220,227.5,-235,,227.5,,,,,,227.5
100,M,SBD,7,Deniss Korohods,,M_OR_WPC,,Raw,99.3,230,240,-250,,240,170,177.5,-182.5,,177.5,250,-270,-270,,250,667.5
48,F,B,1,Diana Burlakova,,F_JR_WPC,1992,Raw,47.9,,,,,,57.5,60,-62.5,,60,,,,,,60
125,M,B,2,Didier Michelon,,M_MR_3_WPC,1963,Raw,117,,,,,,180,-185,,,180,,,,,,180
125,M,B,DQ,Didier Michelon,,M_MEM_3_WPC,1963,Multi-ply,116.6,,,,,,-322.5,-322.5,,,,,,,,,
90,M,B,1,Didier Theux,,M_OEM_WPC,1958,Multi-ply,87.7,,,,,,235,247.5,-255,,247.5,,,,,,247.5
90,M,B,1,Didier Theux,,M_MEM_4_WPC,1958,Multi-ply,87.7,,,,,,235,247.5,-255,,247.5,,,,,,247.5
125,M,B,1,Dieter Berghoff,,M_MR_4_WPC,1960,Raw,120.9,,,,,,175,185,192.5,,192.5,,,,,,192.5
125,M,SBD,4,Dimitrov Hristo Muskov,,M_OR_WPC,,Raw,116.7,260,270,280,,280,220,230,-235,,230,320,335,350,,350,860
67.5,M,B,2,Dmitrijs Sauskins,,M_OR_WPC,1986,Raw,64.3,,,,,,140,150,155,,155,,,,,,155
82.5,M,SBD,1,Dmitrijs Stepenko,,M_MR_2_WPC,,Raw,80.9,180,190,,,190,135,145,,,145,200,210,,,210,545
82.5,M,SBD,1,Dmitrijs Stepenko,,M_MES_2_WPC,,Single-ply,80.9,240,250,260,,260,180,190,-200,,190,210,225,-230,,225,675
82.5,M,B,2,Dmitriy Kukharenko,,M_OR_WPC,1969,Raw,81.1,,,,,,190,-195,-195,,190,,,,,,190
82.5,M,B,1,Dmitriy Kukharenko,,M_MR_2_WPC,1969,Raw,81.1,,,,,,190,-195,-195,,190,,,,,,190
110,M,B,7,Dmitriy Nosov,,M_OR_WPC,1971,Raw,106.8,,,,,,200,205,207.5,,207.5,,,,,,207.5
110,M,B,1,Dmitriy Nosov,,M_MR_1_WPC,1971,Raw,106.8,,,,,,200,205,207.5,,207.5,,,,,,207.5
140,M,B,1,Dmitriy Permyakov,,M_MEM_1_WPC,1975,Multi-ply,132.6,,,,,,330,345,-360,,345,,,,,,345
125,M,B,1,Dmitry Gorbachev,,M_MR_2_WPC,1970,Raw,116,,,,,,200,215,220,,220,,,,,,220
125,M,B,1,Dmitry Gorbachev,,M_OEM_WPC,1970,Multi-ply,117.6,,,,,,-310,-310,310,,310,,,,,,310
125,M,B,1,Dmitry Gorbachev,,M_MEM_2_WPC,1970,Multi-ply,117.6,,,,,,-310,-310,310,,310,,,,,,310
67.5,M,B,1,Dominik Daniel Skrzyński,,M_OR_WPC,1975,Raw,67.3,,,,,,-180,180,195,-200,195,,,,,,195
75,M,SBD,DQ,Edgars Peterlēvics,,M_OES_WPC,,Single-ply,74.2,-245,-245,-245,,,,,,,,,,,,,
75,M,B,1,Edgars Peterlēvics,,M_OES_WPC,1986,Single-ply,74.2,,,,,,210,217.5,-222.5,,217.5,,,,,,217.5
100,M,SBD,2,Edgars Ratnieks,,M_OR_WPC,,Raw,100,250,262.5,-270,,262.5,185,195,-202.5,,195,305,315,-317.5,,315,772.5
110,M,D,1,Edgars Ratnieks,,M_OES_WPC,1988,Single-ply,100.8,,,,,,,,,,,320,-335,-335,,320,320
140,M,B,1,Edmunds Andrups,,M_MR_2_WPC,1970,Raw,125.6,,,,,,190,200,205,,205,,,,,,205
140,M,B,1,Edmunds Andrups,,M_MEM_2_WPC,1970,Multi-ply,125.3,,,,,,240,250,260,,260,,,,,,260
110,M,B,5,Edmunds Freimanis,,M_MR_1_WPC,1974,Raw,101.4,,,,,,140,160,-170,,160,,,,,,160
82.5,M,B,2,Edmunds Keningsvalds,,M_MR_6_WPC,1948,Raw,76.9,,,,,,85,95,-97.5,,95,,,,,,95
100,M,SBD,1,Eduard Khanjyan,,M_OR_WPC,,Raw,99,290,-302.5,-302.5,,290,180,190,,,190,310,325,-370,,325,805
90,M,B,1,Eduards Saveļjevs,,M_MR_1_WPC,1971,Raw,86.1,,,,,,170,182.5,190,,190,,,,,,190
75,F,SBD,2,Elina Chernina,,F_OR_WPC,,Raw,74.2,135,145,150,,150,77.5,82.5,87.5,,87.5,-160,160,175,,175,412.5
48,F,B,1,Elizabet Tomilov,,F_YR_WPC,2003,Raw,47.5,,,,,,37.5,40,42.5,,42.5,,,,,,42.5
60,M,SBD,1,Elmir Tarverdiyev,,M_OR_WPC,,Raw,60,170,-185,187.5,192.5,187.5,100,110,,,110,210,230,-240,,230,527.5
48,F,SBD,1,Elnara Guliyeva,,F_OR_WPC,,Raw,46.6,85,92.5,-100,,92.5,50,-55,55,,55,110,120,-130,,120,267.5
90,M,B,1,Emīls Alkšārs,,M_TR_3_WPC,1995,Raw,84.3,,,,,,142.5,147.5,152.5,,152.5,,,,,,152.5
75,F,B,1,Emma Ylitalo-James,UK,F_OES_WPC,1969,Single-ply,74.6,,,,,,170,180,190,,190,,,,,,190
90,M,SBD,1,Eric Conway,,M_MR_3_WPC,,Raw,88.7,145,150,155,,155,100,110,112.5,,112.5,190,205,212.5,,212.5,480
110,M,B,4,Eric Platel,,M_MR_1_WPC,1971,Raw,107.8,,,,,,180,192.5,-200,,192.5,,,,,,192.5
110,M,B,DQ,Eric Platel,,M_MEM_1_WPC,1971,Multi-ply,109.4,,,,,,-260,-260,-260,,,,,,,,
140,M,B,2,Erik Susztay,,M_MR_1_WPC,1972,Raw,132.3,,,,,,-215,215,-222.5,,215,,,,,,215
75,M,SBD,1,Ēriks Silovs,,M_TR_2_WPC,,Raw,75,200,205,210,-215,210,100,110,-112.5,,110,200,210,215,,215,535
75,M,D,1,Ēriks Silovs,,M_TR_2_WPC,1997,Raw,74.6,,,,,,,,,,,200,207.5,212.5,,212.5,212.5
67.5,M,SBD,1,Ernest Ruzin,,M_MR_8_WPC,,Raw,61.7,120,125,127.5,,127.5,72.5,77.5,,,77.5,150,155,,,155,360
82.5,M,B,1,Ernests Višķers,,M_TR_3_WPC,1995,Raw,80.3,,,,,,142.5,155,165,,165,,,,,,165
56,F,SBD,2,Eveliina Ilona Pohjavirta,,F_JR_WPC,,Raw,54.3,80,90,-92.5,,90,35,40,45,,45,100,110,115,,115,250
90,M,SBD,4,Evgeniy Khomov,,M_OR_WPC,,Raw,88.5,190,200,-207.5,,200,170,177.5,180,,180,270,285,-292.5,,285,665
90,M,D,2,Evgeniy Khomov,,M_OR_WPC,1982,Raw,89.5,,,,,,,,,,,275,287.5,-295,,287.5,287.5
90,M,SBD,1,Evgeniy Khudoleev,,M_MR_6_WPC,,Raw,88.9,-180,180,190,,190,-125,-125,125,,125,200,215,230,,230,545
90,M,D,1,Evgeniy Khudoleev,,M_MR_6_WPC,1946,Raw,87.3,,,,,,,,,,,220,230,232.5,,232.5,232.5
110,M,SBD,1,Filipe Lavandeira,,M_OEM_WPC,,Multi-ply,101.6,-380,380,-405,,380,230,-245,245,,245,320,-340,-340,,320,945
100,M,B,2,Florindo Figueiredo Pinheiro,,M_OR_WPC,1973,Raw,96.8,,,,,,235,242.5,-251,,242.5,,,,,,242.5
90,M,B,1,Frank Kutzsch,,M_MR_4_WPC,1956,Raw,88.3,,,,,,147.5,155,160,,160,,,,,,160
90,M,D,1,Frank Kutzsch,,M_MR_4_WPC,1956,Raw,88.3,,,,,,,,,,,215,235,-248,,235,235
82.5,M,B,1,Gabriel Kováč,,M_JEM_WPC,1995,Multi-ply,80.3,,,,,,250,260,270,,270,,,,,,270
100,M,SBD,1,Gabriele Calista,,M_OES_WPC,,Single-ply,93.5,285,292.5,,,292.5,180,190,-200,,190,300,315,331,,331,813.5
82.5,M,B,3,Gatis Biezais,,M_OR_WPC,1975,Raw,81.4,,,,,,177.5,-180,180,,180,,,,,,180
125,M,D,2,Gatis Roze,,M_OES_WPC,1990,Single-ply,120.3,,,,,,,,,,,330,-340,340,,340,340
110,M,B,4,Gennady Obermeister,,M_OEM_WPC,1970,Multi-ply,109,,,,,,-260,260,-280,,260,,,,,,260
110,M,B,2,Gennady Obermeister,,M_MEM_1_WPC,1970,Multi-ply,109,,,,,,-260,260,-280,,260,,,,,,260
90,M,D,1,Georgii Taranukhin,,M_MR_2_WPC,1968,Raw,89.2,,,,,,,,,,,245,260,-267.5,,260,260
75,M,B,1,Georgijs Soļerovs,,M_MR_1_WPC,1970,Raw,69.4,,,,,,95,112.5,-115,,112.5,,,,,,112.5
100,M,SBD,8,Georgiy Yegazaren,,M_OR_WPC,,Raw,99.2,220,232.5,242.5,,242.5,150,160,165,,165,240,-260,,,240,647.5
100,M,SBD,2,Georgiy Yegazaren,,M_OES_WPC,,Single-ply,99.9,220,250,-270,,250,145,152.5,157.5,,157.5,220,240,-255,,240,647.5
100,M,D,3,Georgiy Yegazaren,,M_OR_WPC,1984,Raw,97,,,,,,,,,,,240,260,272.5,,272.5,272.5
125,M,B,1,Göran Hans Rosen,,M_MR_3_WPC,1965,Raw,116.5,,,,,,200,-210,210,,210,,,,,,210
125,M,D,2,Göran Hans Rosen,,M_MR_3_WPC,1965,Raw,116.5,,,,,,,,,,,260,-272.5,-272.5,,260,260
82.5,M,SBD,1,Grigori Rubin,,M_MR_8_WPC,,Raw,75.3,105,110,115,,115,87.5,92.5,95,,95,145,152.5,161,,161,371
82.5,M,B,1,Grigori Rubin,,M_MR_8_WPC,1936,Raw,75.4,,,,,,87.5,92.5,95,,95,,,,,,95
82.5,M,B,1,Grigori Rubin,,M_MEM_8_WPC,1936,Multi-ply,75.4,,,,,,112.5,-117.5,-117.5,,112.5,,,,,,112.5
82.5,M,D,1,Grigori Rubin,,M_MR_8_WPC,1936,Raw,75.4,,,,,,,,,,,140,150,155,,155,155
82.5,M,D,1,Grigori Rubin,,M_MES_8_WPC,1936,Single-ply,75.4,,,,,,,,,,,162.5,167.5,172.5,,172.5,172.5
90,M,SBD,1,Gunduz Mamadov,,M_OR_WPC,,Raw,88.3,280,300,-315,,300,180,190,-200,,190,-280,280,-305,,280,770
56,F,SBD,1,Gunel Talybova,,F_OR_WPC,,Raw,55.7,147.5,150,152.5,155,152.5,90,92.5,-95,,92.5,175,-185,,,175,420
140+,M,B,1,Guntars Kusiņš,,M_MR_1_WPC,1971,Raw,153.7,,,,,,190,205,-210,,205,,,,,,205
100,M,D,1,Hafiz Verdiyev,,M_OR_WPC,1990,Raw,96.6,,,,,,,,,,,-315,315,-332.5,,315,315
75,M,B,1,Hans-Jürgen Kaule,,M_MES_5_WPC,1954,Single-ply,74.3,,,,,,160,-165,165,,165,,,,,,165
110,M,B,DQ,Hans-Ulrich Vetter,,M_MEM_5_WPC,1952,Multi-ply,106,,,,,,-180,,,,,,,,,,
110,M,B,1,Hans-Ulrich Vetter,,M_MES_5_WPC,1952,Single-ply,106.4,,,,,,182.5,192.5,200,,200,,,,,,200
100,M,B,4,Helmut Silberbauer,,M_MR_3_WPC,1964,Raw,91.2,,,,,,140,145,-150,,145,,,,,,145
100,M,B,1,Hovhannes Yazichyan,,M_MR_1_WPC,1971,Raw,95.4,,,,,,205,210,215,,215,,,,,,215
110,M,B,1,Igor Lebedev,,M_MR_3_WPC,1962,Raw,101.4,,,,,,190,200,-210.5,,200,,,,,,200
100,M,B,4,Igor Priemyshev,,M_OR_WPC,1982,Raw,98.8,,,,,,200,207.5,-212.5,,207.5,,,,,,207.5
110,M,SBD,1,Igor Zarubin,,M_MR_1_WPC,,Raw,108.9,190,200,210,,210,150,160,170,,170,200,215,225,,225,605
110,M,SBD,2,Igor Zaytsev,,M_MR_1_WPC,,Raw,110,192.5,-200,-200,,192.5,-130,130,-140,,130,222.5,227.5,-232.5,,227.5,550
110,M,B,4,Igors Optimistovs,,M_MR_2_WPC,1967,Raw,102.9,,,,,,162.5,167.5,-172.5,,167.5,,,,,,167.5
110,M,B,2,Ikars Gabrāns,,M_MR_2_WPC,1968,Raw,109,,,,,,-175,175,-182,,175,,,,,,175
75,M,SBD,DQ,Ilya Kokorev,,M_MEM_1_WPC,,Multi-ply,74.5,-300,-300,-300,,,,,,,,,,,,,
67.5,F,B,2,Ina Trama,,F_OR_WPC,1988,Raw,61.9,,,,,,62.5,65,67.5,,67.5,,,,,,67.5
67.5,F,B,1,Ina Tretjaka,,F_OR_WPC,1985,Raw,67,,,,,,100,105,-107.5,,105,,,,,,105
52,F,B,1,Inge Kaule,,F_MES_5_WPC,1952,Single-ply,50,,,,,,52.5,55,-57.5,,55,,,,,,55
67.5,M,SBD,1,Intars Baumanis,,M_TR_2_WPC,,Raw,67.4,190,205,215,,215,120,125,-130,,125,205,-220,220,,220,560
110,M,B,1,Intars Sauskājs,,M_JR_WPC,1994,Raw,105.6,,,,,,-160,160,170,,170,,,,,,170
44,F,SBD,1,Irina Pomerantsev,,F_MR_2_WPC,,Raw,43.2,70,75,80,,80,60,62.5,65,,65,90,102.5,107.5,,107.5,252.5
44,F,B,1,Irina Pomerantsev,,F_MR_2_WPC,1970,Raw,42.8,,,,,,60,62.5,65,,65,,,,,,65
44,F,D,1,Irina Pomerantsev,,F_MR_2_WPC,1970,Raw,42.8,,,,,,,,,,,95,100,105,,105,105
100,M,B,DQ,Ismayil Quliyev,,M_OES_WPC,1978,Single-ply,97,,,,,,-212.5,-212.5,-212.5,,,,,,,,
82.5,M,SBD,1,Ivan Arshinov,,M_JR_WPC,,Raw,80.1,235,240,252.5,,252.5,180,190,-197.5,,190,255,270,285,,285,727.5
110,M,B,9,Ivan Solntsev,,M_OR_WPC,1974,Raw,101.3,,,,,,195,202.5,-205,,202.5,,,,,,202.5
110,M,B,2,Ivan Solntsev,,M_MR_1_WPC,1974,Raw,101.3,,,,,,195,202.5,-205,,202.5,,,,,,202.5
110,M,B,2,Ivan Solntsev,,M_MES_1_WPC,1974,Single-ply,101.5,,,,,,212.5,225,235,,235,,,,,,235
140+,M,D,2,Ivans Bistrovs,,M_OR_WPC,1987,Raw,153.6,,,,,,,,,,,320,-340,-340,,320,320
125,M,D,2,Ivars Cīrulis,,M_OEM_WPC,1979,Multi-ply,113.7,,,,,,,,,,,340,350,-360,,350,350
90,M,SBD,7,Jack Gibson,,M_OR_WPC,,Raw,88.1,205,-215,-215,,205,155,160,-167.5,,160,220,230,-250,,230,595
90,M,B,4,Jānis Zvaigznonis,,M_JR_WPC,1993,Raw,85.3,,,,,,155,165,,,165,,,,,,165
90,M,D,3,Janne Rissanen,,M_OR_WPC,1985,Raw,88.7,,,,,,,,,,,280,-300,-302.5,,280,280
75,F,SBD,1,Jelena Dmitrijevic,,F_OR_WPC,,Raw,72.5,150,160,175,,175,80,87.5,-92.5,,87.5,160,172.5,-177.5,,172.5,435
140,M,B,3,Jerzy Drewniak Zbigniew,,M_MR_1_WPC,1973,Raw,134.7,,,,,,190,200,205,,205,,,,,,205
140+,M,B,1,Jerzy Maciej Kot,,M_MR_2_WPC,1968,Raw,145.1,,,,,,160,170,-175,,170,,,,,,170
110,M,D,1,Johannes Hermundsen,,M_JR_WPC,1992,Raw,106,,,,,,,,,,,250,260,270,,270,270
100,M,D,1,Jose Fontes Teixeira,,M_MES_1_WPC,1970,Single-ply,98.7,,,,,,,,,,,280,287.5,-295,,287.5,287.5
100,M,SBD,1,Jose Teixeira Fuentes,,M_MR_1_WPC,,Raw,97.6,200,215,225,,225,125,135,145,,145,260,275,-280,,275,645
82.5,M,B,6,Jurijs Bosovs,,M_OR_WPC,1984,Raw,80.9,,,,,,130,140,147.5,,147.5,,,,,,147.5
140,M,SBD,1,Justins Petinens,,M_TR_3_WPC,,Raw,133.9,-250,250,-260,,250,160,170,-180,,170,290,-300,300,,300,720
140,M,D,1,Justins Petinens,,M_TR_3_WPC,1996,Raw,132,,,,,,,,,,,-290,290,300,305,300,300
110,M,B,2,Kalle Ylitalo-James,Finland,M_OEM_WPC,1983,Multi-ply,109.7,,,,,,250,262.5,272.5,,272.5,,,,,,272.5
82.5,M,B,1,Kamil Gafarov,,M_OR_WPC,1984,Raw,81.7,,,,,,192.5,200,210,,210,,,,,,210
100,M,SBD,1,Kamran AliZada,,M_MR_3_WPC,,Raw,97.2,140,155,,,155,125,132.5,-137.5,,132.5,200,210,215,,215,502.5
100,M,B,5,Kamran AliZada,,M_MR_3_WPC,1964,Raw,97,,,,,,125,-135,135,,135,,,,,,135
100,M,D,2,Kamran AliZada,,M_MR_3_WPC,1964,Raw,97,,,,,,,,,,,200,-210,,,200,200
75,M,SBD,1,Karen Kasabjans,,M_MR_2_WPC,,Raw,74.2,100,110,-120,,110,95,-100,-100,,95,125,130,135,,135,340
125,M,SBD,1,Kaspars Didzis,,M_MEM_1_WPC,,Multi-ply,114,330,350,-375,,350,-210,210,220,,220,270,290,-300,,290,860
110,M,B,1,Kaspars Sniedze,,M_OR_WPC,1987,Raw,106.2,,,,,,225,235,242.5,,242.5,,,,,,242.5
82.5,M,B,1,Kiril Pagelski,,M_TR_2_WPC,1997,Raw,75.9,,,,,,110,-120,-120,,110,,,,,,110
110,M,D,1,Kirill Afanasjev,,M_OR_WPC,1982,Raw,107.9,,,,,,,,,,,300,320,330,,330,330
90,M,B,3,Klaus Renfors,,M_MR_1_WPC,1973,Raw,88.5,,,,,,150,155,-160,,155,,,,,,155
140+,M,D,1,Konstantīn Konstantīnovs,,M_OR_WPC,1978,Raw,140.2,,,,,,,,,,,370,400,405,,405,405
90,M,B,2,Konstantin Topychkanov,,M_MR_1_WPC,1972,Raw,90,,,,,,165,170,-172.5,,170,,,,,,170
110,M,B,6,Konstantīns Soboļevs,,M_OR_WPC,1990,Raw,107.8,,,,,,200,210,-215,,210,,,,,,210
110,M,D,2,Kristaps Somošs,,M_OR_WPC,1989,Raw,103.4,,,,,,,,,,,300,320,-340,,320,320
67.5,F,SBD,3,Kristine Alksne,,F_OR_WPC,,Raw,60.2,90,102.5,105,,105,55,62.5,65,,65,110,120,130,,130,300
90+,F,B,1,Kristīne Gecēviča,,F_JR_WPC,1994,Raw,100.1,,,,,,100,107.5,-110,,107.5,,,,,,107.5
90+,F,D,1,Kristīne Gecēviča,,F_JR_WPC,1994,Raw,100.1,,,,,,,,,,,160,170,180,-185,180,180
67.5,F,SBD,1,Kseniya Mogurova,,F_OR_WPC,,Raw,67.5,127.5,-137.5,-137.5,,127.5,65,70,-72.5,,70,175,185,192.5,,192.5,390
125,M,B,4,Lars Mikael Ostlund,,M_OR_WPC,1983,Raw,110.3,,,,,,200,-210,,,200,,,,,,200
100,M,D,2,Lars Stöwesandt,,M_OR_WPC,1979,Raw,97.9,,,,,,,,,,,250,262.5,275,,275,275
140,M,B,2,László Vass,,M_MR_3_WPC,1964,Raw,138.8,,,,,,165,172.5,177.5,,177.5,,,,,,177.5
60,M,SBD,1,Lauris Kalašņikovs,,M_TR_2_WPC,,Raw,59.6,100,110,120,,120,70,75,-80,,75,140,155,162.5,,162.5,357.5
82.5,M,B,1,Leonid Averbakh,,M_MR_4_WPC,1959,Raw,80.9,,,,,,105,110,117.5,,117.5,,,,,,117.5
56,F,B,2,Lielne Lamberte,,F_OR_WPC,1986,Raw,53.9,,,,,,45,-47.5,-47.5,,45,,,,,,45
90,M,B,3,Luis Filipe Simoes,,M_OR_WPC,1981,Raw,87.8,,,,,,180,190,,,190,,,,,,190
125,M,B,DQ,Łukasz Toczylowski,,M_OR_WPC,1985,Raw,120.6,,,,,,-210,-210,-215,,,,,,,,
90,M,SBD,8,Luke James Ashwood,,M_OR_WPC,,Raw,86.1,165,175,185,,185,130,145,-150,,145,215,227.5,-240,,227.5,557.5
110,M,B,3,Maksims Gordejevs,,M_OR_WPC,1984,Raw,104.8,,,,,,225,235,-242.5,,235,,,,,,235
110,M,B,2,Maksims Selickis,,M_OES_WPC,1980,Single-ply,100.8,,,,,,272.5,282.5,290,,290,,,,,,290
82.5,M,B,1,Maksims Suščevskihs,,M_JR_WPC,1994,Raw,78.8,,,,,,160,165,170,,170,,,,,,170
110,M,B,3,Maksims Udalovs,,M_MR_1_WPC,1974,Raw,102,,,,,,190,197.5,200,,200,,,,,,200
90,M,D,1,Manuel Grbac,,M_JR_WPC,1991,Raw,88.8,,,,,,,,,,,270,282.5,-292.5,,282.5,282.5
140,M,B,4,Marc Oliver Kopp,,M_MR_1_WPC,1972,Raw,126.7,,,,,,185,200,202.5,,202.5,,,,,,202.5
60,M,B,1,Marek Herák,,M_TEM_3_WPC,1995,Multi-ply,60,,,,,,165,175,-185,,175,,,,,,175
52,F,SBD,1,Marija Buzovska,,F_OR_WPC,,Raw,51.1,60,65,-70,,65,35,-37.5,-37.5,,35,70,80,87.5,,87.5,187.5
125,M,B,1,Mariks Daugavets,,M_MR_1_WPC,1971,Raw,122.7,,,,,,200,207.5,210,,210,,,,,,210
48,F,B,1,Marina Zharova,,F_OR_WPC,1984,Raw,48,,,,,,55,62.5,-65,,62.5,,,,,,62.5
56,F,B,1,Mariya Yultsova,,F_OR_WPC,1982,Raw,55.6,,,,,,62.5,67.5,-70,,67.5,,,,,,67.5
100,M,B,1,Marko Lempinen,,M_MEM_2_WPC,1966,Multi-ply,96.6,,,,,,-225,-225,225,,225,,,,,,225
140+,M,B,1,Marko Traks,,M_OEM_WPC,1989,Multi-ply,159.6,,,,,,300,-320,,,300,,,,,,300
90,M,B,2,Martin Randall,,M_MR_2_WPC,1965,Raw,88.2,,,,,,125,130,-135,,130,,,,,,130
100,M,B,3,Mārtiņš Būčiņš,,M_MR_1_WPC,1974,Raw,95.8,,,,,,160,-170,,,160,,,,,,160
125,M,B,2,Mārtiņš Ozoliņš,,M_JR_WPC,1992,Raw,112.4,,,,,,170,180,-190,,180,,,,,,180
90,M,B,5,Mathias Steiner,,M_OR_WPC,1988,Raw,88.5,,,,,,165,170,175,,175,,,,,,175
100,M,SBD,4,Matias Suominen Ville,,M_OR_WPC,,Raw,98.3,225,235,-240,,235,160,-167.5,167.5,,167.5,275,287.5,-292.5,,287.5,690
67.5,M,B,4,Michael Phipps,,M_OR_WPC,1979,Raw,65.2,,,,,,92.5,100,-105,,100,,,,,,100
67.5,M,D,1,Michael Phipps,,M_OR_WPC,1979,Raw,65.2,,,,,,,,,,,150,165,-177.5,,165,165
60,M,B,1,Mihails Rapoports,,M_TR_2_WPC,1999,Raw,59.2,,,,,,80,87.5,90,,90,,,,,,90
100,M,B,1,Mikhail Aleksakov,,M_MR_5_WPC,1954,Raw,97.8,,,,,,110,115,120,,120,,,,,,120
100,M,D,1,Mikhail Aleksakov,,M_MR_5_WPC,1954,Raw,97.8,,,,,,,,,,,160,165,170,,170,170
140,M,B,1,Mikhail Nikolaev,,M_MR_3_WPC,1961,Raw,129.4,,,,,,200,212.5,-217.5,,212.5,,,,,,212.5
90,M,B,1,Miroslav Adamove,,M_TEM_3_WPC,1997,Multi-ply,87.9,,,,,,240,260,-270,,260,,,,,,260
90,M,B,1,Miroslav Čaba,,M_JEM_WPC,1993,Multi-ply,86.3,,,,,,220,-240,-240,,220,,,,,,220
100,M,B,1,Miroslaw Orłowski,,M_MR_7_WPC,1943,Raw,97.4,,,,,,130,135,140,,140,,,,,,140
67.5,M,SBD,2,Mushfig Aliyev,,M_OR_WPC,,Raw,67.5,200,210,215,,215,145,-150,-150,,145,200,-230,-230,,200,560
60,F,B,1,Nadezhda Vlasova,,F_OR_WPC,1982,Raw,59.8,,,,,,100,102.5,-105,,102.5,,,,,,102.5
67.5,F,D,1,Nadine Pedraza,,F_TR_2_WPC,1998,Raw,61.6,,,,,,,,,,,95,105,112.5,,112.5,112.5
100,M,B,3,Namig Nuruyev,,M_OEM_WPC,1986,Multi-ply,97.6,,,,,,-255,255,-282.5,,255,,,,,,255
75,F,SBD,1,Naomi Sheppard,UK,F_JR_WPC,,Raw,69.8,110,122.5,130,,130,65,-70,-70,,65,120,130,135,,135,330
100,M,SBD,2,Nasir Aliyev,,M_OEM_WPC,,Multi-ply,99.6,-290,-290,300,,300,180,200,-215,,200,-260,260,-280,,260,760
110,M,D,1,Nasir Aliyev,,M_OEM_WPC,1990,Multi-ply,101.1,,,,,,,,,,,280,292.5,,,292.5,292.5
75,M,B,4,Nerius Bimbiris,,M_OR_WPC,1985,Raw,74.2,,,,,,160,-165,-170,,160,,,,,,160
100,M,D,DQ,Niclas Friberg,,M_MEM_1_WPC,1974,Multi-ply,98.6,,,,,,,,,,,-301,-301,-301,,,
125,M,SBD,1,Nikolai Fesaniuk,,M_OR_WPC,,Raw,122.6,330,355,362.5,,362.5,-200,212.5,217.5,,217.5,340,-365,-365,,340,920
110,M,B,1,Nikolay Alyshev,,M_OEM_WPC,1985,Multi-ply,108.2,,,,,,270,287.5,-300,,287.5,,,,,,287.5
90,M,B,2,Nikolay Sarafanov,,M_OR_WPC,1983,Raw,89.4,,,,,,190,200,-207.5,,200,,,,,,200
110,M,B,8,Normunds Kačānovs,,M_OR_WPC,1979,Raw,106.9,,,,,,190,205,-212.5,,205,,,,,,205
100,M,B,1,Normunds Sproģis,,M_MR_3_WPC,1965,Raw,97.7,,,,,,195,-205,-207.5,,195,,,,,,195
100,M,B,1,Oleg Bazilevich,,M_OR_WPC,1982,Raw,96.8,,,,,,235,245,-256,,245,,,,,,245
100,M,B,1,Oļegs Illarionovs,,M_MES_2_WPC,1965,Single-ply,96.8,,,,,,235,240,-245,,240,,,,,,240
52,F,D,1,Olga Mikhaylova,,F_OR_WPC,1971,Raw,51.8,,,,,,,,,,,155,160,162.5,,162.5,162.5
110,M,SBD,1,Orkhan Vagif Ahmadzade,,M_OR_WPC,,Raw,103.8,250,-260,,,250,170,190,-205,,190,260,,,,260,700
110,M,D,DQ,Orkhan Vagif Ahmadzade,,M_OEM_WPC,1988,Multi-ply,103.8,,,,,,,,,,,-290,-290,,,,
75,F,SBD,DQ,Patricia Wetton,UK,F_MR_3_WPC,,Raw,74.2,-90,-90,-90,,,,,,,,,,,,,
90,M,B,3,Paulius Morkvėnas,,M_JR_WPC,1992,Raw,87.9,,,,,,170,180,185,,185,,,,,,185
100,M,SBD,1,Paulo Santos #1,,M_OEM_WPC,,Multi-ply,97.2,300,325,340,,340,205,215,225,,225,305,327.5,335,,335,900
100,M,D,1,Paulo Santos #1,,M_OEM_WPC,1988,Multi-ply,96.2,,,,,,,,,,,280,305,325,,325,325
82.5,M,SBD,1,Paulo Vilas-Boas,,M_OEM_WPC,,Multi-ply,79.5,-290,290,315,,315,150,170,-180,,170,250,270,-285,,270,755
75,M,D,1,Pavel Eliseev,,M_OR_WPC,1986,Raw,73.2,,,,,,,,,,,220,230,-240,,230,230
125,M,B,1,Pavel Redkin,,M_OR_WPC,1985,Raw,122.5,,,,,,230,240,-245,,240,,,,,,240
100,M,SBD,5,Pavel Vysochin,,M_OR_WPC,,Raw,99.5,215,225,230,,230,170,180,185,,185,245,260,272.5,,272.5,687.5
100,M,B,6,Pavels Gaimovič,,M_OR_WPC,1990,Raw,98.3,,,,,,180,-190,190,,190,,,,,,190
90,M,B,2,Pāvels Kijānovs,,M_JR_WPC,1991,Raw,89,,,,,,185,192.5,-197.5,,192.5,,,,,,192.5
140,M,B,3,Per Holm,,M_MR_3_WPC,1964,Raw,133.4,,,,,,142.5,155,-162.5,,155,,,,,,155
140,M,B,1,Peter Diethalm,,M_MR_1_WPC,1974,Raw,132.1,,,,,,207.5,215,220,,220,,,,,,220
140,M,B,3,Peter Hallberg,,M_OEM_WPC,1987,Multi-ply,135.9,,,,,,290,-300,300,,300,,,,,,300
140,M,B,2,Peter Funtík,,M_OEM_WPC,1978,Multi-ply,130.4,,,,,,305,-320,-335,,305,,,,,,305
140+,M,B,1,Péter Mihály,,M_MEM_4_WPC,1958,Multi-ply,159.3,,,,,,230,,,,230,,,,,,230
110,M,SBD,1,Peter Sakala,,M_TEM_3_WPC,,Multi-ply,108.1,290,-312.5,-312.5,,290,180,195,-200,,195,220,-240,-240,,220,705
140,M,B,1,Peteris Isājevs,,M_OR_WPC,1984,Raw,133.1,,,,,,270,280,290,,290,,,,,,290
100,M,B,6,Petri Kalevi Mäkinen,,M_MR_3_WPC,1963,Raw,90.1,,,,,,110,125,-127.5,,125,,,,,,125
100,M,D,3,Petri Kalevi Mäkinen,,M_MR_3_WPC,1963,Raw,90.1,,,,,,,,,,,140,150,160,,160,160
125,M,B,1,Raimo Aulis Sipiläinen,,M_MR_6_WPC,1949,Raw,114.6,,,,,,155,160,162.5,,162.5,,,,,,162.5
90,M,SBD,DQ,Ramil Ahmadov,,M_OEM_WPC,,Multi-ply,88.2,-310,-310,-310,,,,,,,,,,,,,
82.5,M,D,1,Ramil Ahmadov,,M_OES_WPC,1988,Single-ply,82.5,,,,,,,,,,,250,272.5,280,,280,280
75,M,B,2,Ramin Rzayev,,M_OR_WPC,1980,Raw,75,,,,,,182.5,-192.5,-192.5,,182.5,,,,,,182.5
75,M,B,2,Ramin Rzayev,,M_OES_WPC,1980,Single-ply,74.9,,,,,,212.5,-220,-220,,212.5,,,,,,212.5
82.5,M,B,4,Reinis Freijs,,M_OR_WPC,1986,Raw,80.8,,,,,,165,170,-177.5,,170,,,,,,170
125,M,B,1,Reinis Kindzulis,,M_JR_WPC,1992,Raw,114.9,,,,,,240,-250,-250,,240,,,,,,240
90,M,SBD,6,Ricardo Monteiro,,M_OR_WPC,,Raw,89.2,195,205,-215,,205,-135,135,140,,140,260,275,-280,,275,620
90,M,D,4,Ricardo Monteiro,,M_OR_WPC,1987,Raw,89.3,,,,,,,,,,,262.5,272.5,-282.5,,272.5,272.5
75,M,SBD,DQ,Rihards Nejs,,M_TR_3_WPC,,Raw,72,180,190,-200,,190,-125,-125,-125,,,,,,,,
140+,M,B,1,Rikard Erlandsson,,M_OR_WPC,1977,Raw,163,,,,,,230,250,-270,,250,,,,,,250
90,M,SBD,DQ,Roman Durnov,,M_OES_WPC,,Single-ply,86.6,260,285,302.5,,302.5,-192.5,-195,-195,,,,,,,,
75,M,B,1,Roman Eremashvili,,M_OR_WPC,1981,Raw,72.4,,,,,,200,210,220,,220,,,,,,220
75,M,B,1,Roman Pelykh,,M_OEM_WPC,1985,Multi-ply,74.9,,,,,,-230,230,235,,235,,,,,,235
90,M,B,4,Ruben Oliveira #2,,M_OR_WPC,1981,Raw,88.8,,,,,,170,180,,,180,,,,,,180
90,M,D,6,Ruben Oliveira #2,,M_OR_WPC,1981,Raw,88.8,,,,,,,,,,,235,-245,250,,250,250
140,M,SBD,1,Rufat Agaev,,M_OEM_WPC,,Multi-ply,128.1,450,-475,-475,-475,450,260,275,-290,,275,340,-365,,,340,1065
75,M,D,1,Rustam Musaev,,M_OEM_WPC,1978,Multi-ply,74.8,,,,,,,,,,,-255,255,-270,,255,255
110,M,B,1,Sami Huhtala,,M_MEM_1_WPC,1974,Multi-ply,110,,,,,,280,-292.5,-300,,280,,,,,,280
110,M,B,1,Sami Huhtala,,M_MES_1_WPC,1974,Single-ply,110,,,,,,250,-260,-270,,250,,,,,,250
110,M,SBD,1,Sandis Ķiploks,,M_JR_WPC,,Raw,109.4,-280,280,-300,,280,185,195,-200,,195,300,-325,-325,,300,775
75,F,B,1,Sandra Bileiše,,F_MR_3_WPC,1963,Raw,74.3,,,,,,85,87.5,90,,90,,,,,,90
125,M,SBD,1,Sandro Jose Eusebio,,M_OEM_WPC,,Multi-ply,124.7,400,-430,,,400,245,-260,,,245,310,340,-370,,340,985
67.5,F,D,1,Sara Abbasova,,F_OR_WPC,1983,Raw,65.4,,,,,,,,,,,140,152.5,155,,155,155
100,M,SBD,2,Scott Chafer,,M_MR_1_WPC,,Raw,95,170,180,-185,,180,107.5,-112.5,-115,,107.5,190,200,-205,,200,487.5
75,M,SBD,1,Scott Govier,,M_JR_WPC,,Raw,73.5,160,180,190,,190,100,-115,-115,,100,180,200,210,,210,500
125,M,B,2,Sergei Rudikov,,M_MR_1_WPC,1973,Raw,113.8,,,,,,180,190,200,,200,,,,,,200
125,M,D,2,Sergei Rudikov,,M_MR_1_WPC,1973,Raw,115.1,,,,,,,,,,,200,220,250,,250,250
75,M,B,2,Sergejs Isčenko,,M_JR_WPC,1992,Raw,71.2,,,,,,-125,125,-132.5,,125,,,,,,125
90,M,B,1,Sergejs Mahsumovs,,M_MR_2_WPC,1970,Raw,89.2,,,,,,160,-170,-172.5,,160,,,,,,160
110,M,B,3,Sergejs Vinogradovs,,M_MR_2_WPC,1965,Raw,100.6,,,,,,160,165,172.5,,172.5,,,,,,172.5
100,M,B,2,Sergejs Vinogradovs,,M_MES_2_WPC,1965,Single-ply,98.2,,,,,,180,190,-200,,190,,,,,,190
100,M,B,3,Sergey Didovyk,,M_OR_WPC,1978,Raw,99.7,,,,,,205,212.5,,,212.5,,,,,,212.5
100,M,B,1,Sergey Didovyk,,M_OEM_WPC,1978,Multi-ply,99.7,,,,,,280,-292.5,-292.5,,280,,,,,,280
100,M,D,4,Sergey Didovyk,,M_OR_WPC,1978,Raw,99.7,,,,,,,,,,,205,212.5,-215,,212.5,212.5
75,M,B,2,Sergey Nikiforov,,M_MR_3_WPC,1963,Raw,75,,,,,,115,122.5,125,,125,,,,,,125
100,M,B,DQ,Sergey Tesaruk,,M_OES_WPC,1984,Single-ply,95.5,,,,,,-210,-215,-215,,,,,,,,
140+,M,SBD,1,Sergey Yakovlev,,M_MR_1_WPC,,Raw,159.8,260,275,-285,,275,182.5,192.5,202.5,,202.5,290,320,335,,335,812.5
125,M,SBD,6,Shakhin Tofig Eyvazov,,M_OR_WPC,,Raw,122.4,-270,270,280,,280,-190,190,-200,,190,310,,,,310,780
125,M,SBD,5,Simon Norcup,,M_OR_WPC,,Raw,114.7,280,295,-305,,295,190,195,200,,200,250,300,315,,315,810
125,M,SBD,1,Simon Norcup,,M_MR_2_WPC,,Raw,114.7,280,295,-305,,295,190,195,200,,200,250,300,315,,315,810
82.5,M,SBD,2,Stanislav Simeonov,,M_OR_WPC,,Raw,81.2,210,222.5,230,,230,145,155,162.5,,162.5,240,-260,-275,,240,632.5
100,M,B,1,Stanislaw Kozenko,,M_MES_4_WPC,1957,Single-ply,97.7,,,,,,170,-185,-190,,170,,,,,,170
100,M,SBD,1,Stefan Sochaňski,,M_MR_6_WPC,,Raw,90.3,170,182.5,,,182.5,102.5,110,,,110,192.5,-220,220,,220,512.5
90,M,SBD,1,Stefan Sochaňski,,M_MES_6_WPC,,Single-ply,89,225,242.5,-253,,242.5,122.5,130,-135,,130,230,255,,,255,627.5
100,M,D,1,Stefan Sochaňski,,M_MES_6_WPC,1948,Single-ply,90.1,,,,,,,,,,,-222.5,222.5,245,,245,245
140,M,B,3,Sten Haugas,,M_OR_WPC,1990,Raw,133.8,,,,,,200,-210,-210,,200,,,,,,200
140,M,D,1,Sten Haugas,,M_OR_WPC,1990,Raw,134,,,,,,,,,,,260,-280,280,,280,280
100,M,B,2,Steeve Barros Gameiro,,M_OEM_WPC,1978,Multi-ply,98.7,,,,,,275,-290,-290,,275,,,,,,275
90,M,SBD,1,Steve Plunkett,,M_MEM_1_WPC,,Multi-ply,89.3,275,-300,300,,300,190,,,,190,220,247.5,-262.5,,247.5,737.5
75,F,B,1,Svetlana Sinacheva,,F_OR_WPC,1966,Raw,75,,,,,,107.5,110,-112,,110,,,,,,110
140,M,B,1,Tapio Laine,,M_MES_5_WPC,1952,Single-ply,132.4,,,,,,245,253,,,253,,,,,,253
82.5,F,SBD,1,Tatyana Merezhko,,F_OR_WPC,,Raw,82.2,202.5,212.5,220,,220,95,-100,-100,,95,215,227.5,-232.5,,227.5,542.5
140,M,SBD,2,Thomas Benjamin Humphries,,M_TR_3_WPC,,Raw,136.1,180,195,210,,210,-125,135,142.5,,142.5,255,270,-275,,270,622.5
100,M,SBD,3,Tom Sheppard,UK,M_JR_WPC,,Raw,95.4,-180,-190,190,,190,-130,130,140,,140,210,225,235,,235,565
125,M,B,2,Timo Juhani Majuri,,M_MR_2_WPC,1967,Raw,118,,,,,,210,-220,220,,220,,,,,,220
125,M,B,2,Timo Juhani Majuri,,M_MEM_2_WPC,1967,Multi-ply,120,,,,,,-310,310,-331,,310,,,,,,310
125,M,B,1,Timo Juhani Majuri,,M_MES_2_WPC,1967,Single-ply,119.5,,,,,,270,300,,,300,,,,,,300
110,M,B,5,Todor Kapashikov,,M_OR_WPC,1984,Raw,108.5,,,,,,215,220,-230,,220,,,,,,220
110,M,B,1,Todor Kapashikov,,M_OES_WPC,1984,Single-ply,109.7,,,,,,272.5,282.5,292.5,,292.5,,,,,,292.5
125,M,D,2,Shakhin Eyvazov,,M_OR_WPC,1982,Raw,122.5,,,,,,,,,,,310,-322.5,322.5,,322.5,322.5
67.5,M,SBD,1,Tomáš Siska,,M_TEM_1_WPC,,Multi-ply,65.3,-130,130,137.5,,137.5,55,-60,-60,,55,100,112.5,120,,120,312.5
90,M,SBD,1,Tomass Rihards Chiapas,,M_TEM_1_WPC,,Multi-ply,89.6,-200,205,,,205,100,110,120,,120,50,100,107.5,,107.5,432.5
90,M,D,1,Tomass Rihards Chiapas,,M_TR_1_WPC,2000,Raw,88.9,,,,,,,,,,,180,190,200,,200,200
90,M,D,1,Tomass Rihards Chiapas,,M_TEM_1_WPC,2000,Multi-ply,89.4,,,,,,,,,,,190,200,-205,,200,200
56,M,SBD,1,Tomass Stanislavskis,,M_TR_1_WPC,,Raw,55.9,100,112.5,120,122.5,120,60,72.5,75,,75,115,130,137.5,140,137.5,332.5
56,M,B,1,Tomass Stanislavskis,,M_TR_1_WPC,2001,Raw,55.2,,,,,,60,65,70,72.5,70,,,,,,70
125,M,B,3,Uģis Millers,,M_OR_WPC,1985,Raw,112.2,,,,,,200,212.5,217.5,,217.5,,,,,,217.5
110,M,B,1,Uģis Vācietis,,M_MR_2_WPC,1967,Raw,107.6,,,,,,185,195,-200,,195,,,,,,195
82.5,M,SBD,1,Vadims Grabars,,M_MR_5_WPC,,Raw,82.3,150,170,185,,185,90,102.5,-105,,102.5,235,-245,245,,245,532.5
82.5,M,SBD,1,Vadims Grabars,,M_MES_5_WPC,,Single-ply,82.5,200,215,-225,,215,90,125,-132.5,,125,230,240,-250,,240,580
82.5,M,D,1,Vadims Grabars,,M_MR_5_WPC,1951,Raw,82.4,,,,,,,,,,,215,235,-250,,235,235
100,M,SBD,2,Vadims Kondratjevs,,M_JR_WPC,,Raw,94.5,220,230,-235,,230,170,177.5,-182.5,,177.5,240,255,-265,,255,662.5
100,M,SBD,6,Vadims Nikitins,,M_OR_WPC,,Raw,96.9,225,245,-250,,245,165,175,180,,180,245,257.5,-265,,257.5,682.5
90,M,B,2,Valeri Marvejev,,M_MR_3_WPC,1960,Raw,89.3,,,,,,130,135,-137.5,,135,,,,,,135
90,M,B,1,Valērijs Ņegajevs,,M_MR_6_WPC,1949,Raw,88.6,,,,,,135,140,-142.5,,140,,,,,,140
90,M,B,1,Valērijs Ņegajevs,,M_MES_6_WPC,1949,Single-ply,88.2,,,,,,150,-160,-160,,150,,,,,,150
110,M,B,2,Valeriy Akentyev,,M_MR_4_WPC,1958,Raw,106,,,,,,155,162.5,,,162.5,,,,,,162.5
100,M,B,1,Valeriy Akentyev,,M_MEM_4_WPC,1958,Multi-ply,100,,,,,,235,250,-260,,250,,,,,,250
100,M,SBD,3,Valeriy Kuznetsov #3,,M_OR_WPC,,Raw,97.6,-260,260,-270,,260,180,190,200,,200,260,280,-290,,280,740
100,M,B,5,Valeriy Kuznetsov #3,,M_OR_WPC,1983,Raw,98.2,,,,,,180,190,-200,,190,,,,,,190
75,M,B,1,Valery Belkin,,M_MR_8_WPC,1940,Raw,74.3,,,,,,85,-90,-90,,85,,,,,,85
75,M,B,1,Valery Belkin,,M_MES_8_WPC,1940,Single-ply,74.6,,,,,,-100,100,105,,105,,,,,,105
100,M,SBD,1,Valery Tomilov,,M_MEM_3_WPC,,Multi-ply,99,312.5,325,,,325,220,,,,220,270,290,-300,,290,835
100,M,B,3,Valery Tomilov,,M_MR_3_WPC,1965,Raw,98,,,,,,150,160,170,,170,,,,,,170
100,M,B,1,Valery Tomilov,,M_MEM_3_WPC,1965,Multi-ply,98,,,,,,225,235,,,235,,,,,,235
100,M,B,1,Valery Tomilov,,M_MES_3_WPC,1965,Single-ply,98.5,,,,,,225,235,,,235,,,,,,235
100,M,D,1,Valery Tomilov,,M_MR_3_WPC,1965,Raw,98,,,,,,,,,,,220,240,260,,260,260
100,M,D,2,Valery Tomilov,,M_OEM_WPC,1965,Multi-ply,98,,,,,,,,,,,270,290,-300,,290,290
100,M,D,1,Valery Tomilov,,M_MEM_3_WPC,1965,Multi-ply,98,,,,,,,,,,,270,290,-300,,290,290
82.5,M,SBD,1,Valikhan Ten,,M_OR_WPC,,Raw,81.1,220,230,240,,240,150,160,165,,165,240,250,260,,260,665
82.5,M,D,1,Valikhan Ten,,M_OR_WPC,1979,Raw,80.9,,,,,,,,,,,250,,,,250,250
82.5,M,D,2,Valikhan Ten,,M_OES_WPC,1979,Single-ply,82,,,,,,,,,,,230,260,-272.5,,260,260
100,M,SBD,1,Vasilijs Drobovs,,M_MR_4_WPC,,Raw,99.4,175,190,-200,,190,145,155,-157.5,,155,200,220,230,,230,575
90,M,B,2,Viesturs Eidemanis,,M_OEM_WPC,1979,Multi-ply,88.8,,,,,,230,240,-250,,240,,,,,,240
125,M,B,1,Viktor Fursov,,M_MEM_1_WPC,1974,Multi-ply,121,,,,,,300,-310,-315,,300,,,,,,300
140,M,B,1,Viktor Naydenov,,M_OEM_WPC,1987,Multi-ply,128.1,,,,,,400,415,425,,425,,,,,,425
56,F,B,1,Viktoriya Yultsova,,F_TR_1_WPC,2002,Raw,52.7,,,,,,67.5,72.5,75,77.5,75,,,,,,75
52,M,B,1,Viktors Tarasovs,,M_YR_WPC,2004,Raw,35.7,,,,,,45,50,52.5,,52.5,,,,,,52.5
110,M,SBD,1,Vincas Varza,,M_MES_4_WPC,,Single-ply,104.7,260,270,280,,280,190,195,200,,200,250,260,,,260,740
140,M,B,1,Virginius Kairevicus,,M_MR_4_WPC,1960,Raw,131.6,,,,,,140,150,,,150,,,,,,150
110,M,B,1,Vitaliy Ponomarev,,M_MR_4_WPC,1957,Raw,103.2,,,,,,195,205,207.5,,207.5,,,,,,207.5
110,M,B,1,Vitaliy Ponomarev,,M_MEM_4_WPC,1957,Multi-ply,104.4,,,,,,-230,230,,,230,,,,,,230
110,M,B,1,Vitaliy Ponomarev,,M_MES_4_WPC,1957,Single-ply,102.2,,,,,,230,240,-245,,240,,,,,,240
90,M,B,1,Vjačeslavs Letlans,,M_OR_WPC,1987,Raw,85.8,,,,,,210,215,220,,220,,,,,,220
125,M,SBD,2,Vladimir Golubev,,M_OR_WPC,,Raw,120.4,300,320,,,320,220,230,235,,235,310,325,-335,,325,880
125,M,B,2,Vladimir Golubev,,M_OR_WPC,1986,Raw,118.7,,,,,,222.5,232.5,-240,,232.5,,,,,,232.5
125,M,D,3,Vladimir Golubev,,M_OR_WPC,1986,Raw,118.7,,,,,,,,,,,320,-340,-340,,320,320
125,M,D,1,Vladimir Golubev,,M_OES_WPC,1986,Single-ply,121.5,,,,,,,,,,,300,322.5,342.5,,342.5,342.5
90,M,D,1,Vladimir Hristov,,M_OR_WPC,1983,Raw,89.6,,,,,,,,,,,290,302.5,-316,,302.5,302.5
90,M,D,1,Vladimir Zhabin,,M_OEM_WPC,1980,Multi-ply,89.9,,,,,,,,,,,320,335,345,350,345,345
100,M,B,1,Vladimirs Bogdanovs,,M_MR_2_WPC,1966,Raw,95.8,,,,,,140,145,-152.5,,145,,,,,,145
90,M,B,1,Vladislav Ilyuschits,,M_JR_WPC,1992,Raw,87.8,,,,,,180,-192.5,192.5,,192.5,,,,,,192.5
125,M,B,6,Vladislavs Sehs,,M_OR_WPC,1978,Raw,110.1,,,,,,180,-187.5,-187.5,,180,,,,,,180
75,M,SBD,1,Vladlen Astaptsev,,M_MR_3_WPC,,Raw,75,120,130,135,,135,100,105,-110,,105,175,185,190,,190,430
75,M,B,4,Vladlen Astaptsev,,M_MR_3_WPC,1965,Raw,74,,,,,,97.5,102.5,107.5,,107.5,,,,,,107.5
75,M,D,1,Vladlen Astaptsev,,M_MR_3_WPC,1965,Raw,74,,,,,,,,,,,175,185,192.5,,192.5,192.5
125,M,D,1,Voldemārs Šērs,,M_MR_4_WPC,1960,Raw,111.9,,,,,,,,,,,180,-187.5,,,180,180
90,M,B,1,Volodymyr Starchenko,,M_MEM_1_WPC,1975,Multi-ply,89.4,,,,,,200,210,-220,,210,,,,,,210
100,M,SBD,1,Vusal Aghaparov,,M_JR_WPC,,Raw,96.2,250,-270,-270,,250,190,-200,,,190,270,-285,-285,,270,710
67.5,F,D,1,Yuliya Pilipchatina,,F_OEM_WPC,1984,Multi-ply,67.5,,,,,,,,,,,150,160,170,,170,170
125,M,SBD,1,Yuriy Zakharov,,M_MR_1_WPC,,Raw,123.7,260,285,303,,303,190,200,205,,205,280,300,307.5,,307.5,815
125,M,D,1,Yuriy Zakharov,,M_MR_1_WPC,1972,Raw,124.8,,,,,,,,,,,250,275,-300,,275,275
56,F,SBD,1,Žanna Korosteļova,,F_MR_2_WPC,,Raw,54.5,80,85,87.5,,87.5,60,65,-70,,65,110,120,-125,,120,272.5
56,F,B,1,Žanna Korosteļova,,F_MR_2_WPC,1966,Raw,55.3,,,,,,60,65,67.5,,67.5,,,,,,67.5
82.5,F,B,1,Zdenka Hudíková,,F_OEM_WPC,1980,Multi-ply,81.4,,,,,,120,-130,130,,130,,,,,,130
