Division,WeightClassKg,Place,Name,Team,BodyweightKg,Best3SquatKg,Best3BenchKg,Best3DeadliftKg,TotalKg,Equipment,Event,Sex
Boys,51.71,1,Jonathan Cardenas,Freeport Brazosport,51.44,149.69,86.18,158.76,394.63,Single-ply,SBD,M
Boys,55.79,2,Ricardo Villafana,Splendora,51.8,147.42,90.72,156.49,394.63,Single-ply,SBD,M
Boys,51.71,3,Hunter Angelo,Orange Little Cypress-Mauriceville,51.17,142.88,83.91,158.76,385.55,Single-ply,SBD,M
Boys,51.71,4,David Triller,Needville,50.44,149.69,81.65,138.35,369.68,Single-ply,SBD,M
Boys,51.71,5,Austen Campbell,Sour Lake Hardin-Jefferson,51.53,129.27,88.45,149.69,367.41,Single-ply,SBD,M
Boys,51.71,6,Nolan Moore,Bridge City,49.99,136.08,63.5,136.08,335.66,Single-ply,SBD,M
Boys,51.71,7,Jordan Trevino,Bay City,48.9,102.06,61.23,127.01,290.3,Single-ply,SBD,M
Boys,51.71,8,Chris McGilberry,Silsbee,51.44,104.33,63.5,117.93,285.76,Single-ply,SBD,M
Boys,51.71,9,Clayton Coogler,Shepherd,51.07,117.93,61.23,104.33,283.5,Single-ply,SBD,M
Boys,51.71,NS,Santiago Centeno,Bay City,,,,,,Single-ply,SBD,M
Boys,55.79,1,Joseph Kelley,Cleveland,55.52,190.51,120.2,165.56,476.27,Single-ply,SBD,M
Boys,55.79,2,Collin Kovarcik,Needville,53.52,145.15,92.99,147.42,385.55,Single-ply,SBD,M
Boys,55.79,3,Juan Castillo,Cleveland,54.16,131.54,74.84,131.54,337.93,Single-ply,SBD,M
Boys,55.79,4,Nathan Erickson,Splendora,54.34,120.2,74.84,131.54,326.59,Single-ply,SBD,M
Boys,55.79,5,David Kelley,Cleveland,53.61,120.2,68.04,113.4,301.64,Single-ply,SBD,M
Boys,59.87,6,Cody Prestenback,Freeport Brazosport,56.02,102.06,58.97,115.67,276.69,Single-ply,SBD,M
Boys,59.87,DQ,Kaleb Wolfe,Bay City,55.97,138.35,74.84,,,Single-ply,SBD,M
Boys,55.79,DQ,Devin Leal,Cleveland,55.43,111.13,,,,Single-ply,SBD,M
Boys,55.79,DQ,Ty Ellis,Jasper,55.79,92.99,,,,Single-ply,SBD,M
Boys,55.79,DQ,Chase Watson,Shepherd,55.25,,,,,Single-ply,SBD,M
Boys,59.87,1,Alex Amador,Freeport Brazosport,59.24,172.37,95.25,197.31,464.93,Single-ply,SBD,M
Boys,59.87,2,Jacob Trahan,Bridge City,59.33,174.63,90.72,183.7,449.06,Single-ply,SBD,M
Boys,59.87,3,Jilani Austin,Needville,59.24,174.63,83.91,172.37,430.91,Single-ply,SBD,M
Boys,67.13,4,Ryan Collette,Huffman Hargrave,60.06,142.88,102.06,167.83,412.77,Single-ply,SBD,M
Boys,59.87,5,Alan Rios,Needville,58.6,151.95,95.25,158.76,405.97,Single-ply,SBD,M
Boys,59.87,6,Brian Morales,Needville,58.88,147.42,92.99,163.29,403.7,Single-ply,SBD,M
Boys,67.13,7,Isaias Frutos,Cleveland,59.96,156.49,81.65,161.03,399.16,Single-ply,SBD,M
Boys,59.87,8,Marcus Pham,Hamshire-Fannett,59.42,161.03,83.91,145.15,390.09,Single-ply,SBD,M
Boys,59.87,9,Aaron Hale,Hamshire-Fannett,58.97,142.88,90.72,149.69,383.29,Single-ply,SBD,M
Boys,59.87,NS,Danny Nguyen #9,Bridge City,,,,,,Single-ply,SBD,M
Boys,59.87,NS,Jose Ramos,Bay City,,,,,,Single-ply,SBD,M
Boys,74.84,1,Cesar Marroquin,Huffman Hargrave,67.22,217.72,129.27,204.12,551.11,Single-ply,SBD,M
Boys,67.13,2,Cameron Moody,Shepherd,62.69,197.31,111.13,219.99,528.44,Single-ply,SBD,M
Boys,74.84,3,Drevion Cooper,Coldspring-Oakhurst,67.31,213.19,111.13,197.31,521.63,Single-ply,SBD,M
Boys,67.13,4,Gerald Johnson,La Marque,63.41,183.7,104.33,208.65,496.68,Single-ply,SBD,M
Boys,67.13,5,Lucas Erickson,Splendora,66.22,170.1,122.47,195.04,487.61,Single-ply,SBD,M
Boys,67.13,6,Javier Vela,Shepherd,65.32,185.97,111.13,185.97,483.08,Single-ply,SBD,M
Boys,74.84,7,Tyler Harrison,Cleveland,67.36,172.37,120.2,170.1,462.66,Single-ply,SBD,M
Boys,67.13,8,Trent Taylor,Shepherd,63.96,165.56,97.52,197.31,460.4,Single-ply,SBD,M
Boys,67.13,NS,Luke Potter,Bridge City,,,,,,Single-ply,SBD,M
Boys,67.13,NS,Hollis Snell,Bridge City,,,,,,Single-ply,SBD,M
Boys,74.84,1,Sam Fisher,Bay City,72.94,204.12,140.61,244.94,589.67,Single-ply,SBD,M
Boys,74.84,2,Tanner Jones,Sour Lake Hardin-Jefferson,73.03,197.31,120.2,226.8,544.31,Single-ply,SBD,M
Boys,74.84,3,Eddie Cross,Coldspring-Oakhurst,74.3,190.51,113.4,197.31,501.22,Single-ply,SBD,M
Boys,74.84,4,Hunter Fontenot,Orange Little Cypress-Mauriceville,73.39,181.44,113.4,204.12,498.95,Single-ply,SBD,M
Boys,74.84,5,Asa Spade,Splendora,70.13,190.51,102.06,192.78,485.34,Single-ply,SBD,M
Boys,74.84,6,Jj Arrington,Liberty,71.03,151.95,102.06,188.24,442.25,Single-ply,SBD,M
Boys,74.84,NS,Tahj Edwards,Freeport Brazosport,,,,,,Single-ply,SBD,M
Boys,74.84,NS,Lawrence Smith,Bay City,,,,,,Single-ply,SBD,M
Boys,74.84,DQ,Deveion Starr,Needville,72.85,199.58,151.95,,,Single-ply,SBD,M
Boys,82.1,DQ,Austin Fry,Huffman Hargrave,74.93,,,,,Single-ply,SBD,M
Boys,82.1,1,Austin Moore,Orangefield,79.92,244.94,161.03,226.8,632.76,Single-ply,SBD,M
Boys,82.1,2,Josh Bailey,Hamshire-Fannett,82.01,222.26,133.81,213.19,569.26,Single-ply,SBD,M
Boys,89.81,3,Andrew Harrison,Coldspring-Oakhurst,82.28,197.31,113.4,240.4,551.11,Single-ply,SBD,M
Boys,82.1,4,Waylon Bogany,Cleveland,79.92,210.92,102.06,235.87,548.85,Single-ply,SBD,M
Boys,82.1,5,Jorge Carli,Bay City,78.83,217.72,122.47,192.78,532.97,Single-ply,SBD,M
Boys,82.1,6,Colt Poole,Bridge City,81.47,172.37,154.22,204.12,530.7,Single-ply,SBD,M
Boys,89.81,7,Donivan Orozco,Huffman Hargrave,82.19,197.31,133.81,195.04,526.17,Single-ply,SBD,M
Boys,82.1,8,Garrett Ames,Sour Lake Hardin-Jefferson,81.19,179.17,117.93,201.85,498.95,Single-ply,SBD,M
Boys,89.81,DQ,Charles Boutte,Hamshire-Fannett,82.28,,,,,Single-ply,SBD,M
Boys,82.1,DQ,Raymond Gonzales #2,Bay City,81.37,,,,,Single-ply,SBD,M
Boys,89.81,1,Timoteo Flores,Sour Lake Hardin-Jefferson,88.27,226.8,136.08,213.19,576.06,Single-ply,SBD,M
Boys,89.81,2,DeCorrian Holmes,Jasper,88,204.12,127.01,229.06,560.19,Single-ply,SBD,M
Boys,99.79,3,Adrian Ruiz,Bay City,90.04,195.04,179.17,181.44,555.65,Single-ply,SBD,M
Boys,89.81,4,Trey'vion Antoine,Liberty,88.18,174.63,142.88,208.65,526.17,Single-ply,SBD,M
Boys,89.81,5,Trace Morris,Needville,86.27,183.7,95.25,183.7,462.66,Single-ply,SBD,M
Boys,89.81,NS,John Moye,Shepherd,,,,,,Single-ply,SBD,M
Boys,89.81,NS,Kolby Berss,Cleveland Tarkington,,,,,,Single-ply,SBD,M
Boys,89.81,DQ,Charles Hester,Stafford,85.55,181.44,133.81,,,Single-ply,SBD,M
Boys,89.81,DQ,Keithon Johnson,Shepherd,85.55,,,,,Single-ply,SBD,M
Boys,89.81,DQ,Gage Dryden,Cleveland Tarkington,88.09,226.8,,,,Single-ply,SBD,M
Boys,99.79,1,Carlos Zanzen,Needville,98.52,238.14,170.1,231.33,639.57,Single-ply,SBD,M
Boys,109.77,2,Richy Ortiz,Bay City,99.88,226.8,165.56,238.14,630.49,Single-ply,SBD,M
Boys,99.79,3,Marquise Redmon,Liberty,97.52,224.53,138.35,242.67,605.55,Single-ply,SBD,M
Boys,99.79,4,Anthony Lamb,Splendora,95.07,238.14,136.08,226.8,601.01,Single-ply,SBD,M
Boys,99.79,5,Daniel Martinez #15,Freeport Brazosport,97.07,222.26,133.81,206.38,562.45,Single-ply,SBD,M
Boys,99.79,6,Casen Carter,Hamshire-Fannett,92.53,215.46,145.15,192.78,553.38,Single-ply,SBD,M
Boys,99.79,7,Cayetano Gonzales,Shepherd,90.9,204.12,136.08,208.65,548.85,Single-ply,SBD,M
Boys,99.79,8,Mark Contreras,Freeport Brazosport,93.98,197.31,136.08,213.19,546.58,Single-ply,SBD,M
Boys,99.79,DQ,DeQuan Mayes,Liberty,97.7,,,,,Single-ply,SBD,M
Boys,99.79,DQ,Catarino Moreno,Shepherd,98.61,,,,,Single-ply,SBD,M
Boys,109.77,1,Jerrod Watkins,Orangefield,107.41,274.42,201.85,226.8,703.07,Single-ply,SBD,M
Boys,109.77,2,Jean-Claude Butler,Hamshire-Fannett,106.05,267.62,147.42,244.94,659.98,Single-ply,SBD,M
Boys,109.77,3,Cedric Green,Shepherd,109.59,267.62,149.69,231.33,648.64,Single-ply,SBD,M
Boys,109.77,4,Prince Flye,Bay City,108.32,226.8,136.08,226.8,589.67,Single-ply,SBD,M
Boys,109.77,5,Adam Jacobs,Orangefield,106.68,226.8,149.69,192.78,569.26,Single-ply,SBD,M
Boys,109.77,6,Ruben Garcia,Freeport Brazosport,107.23,217.72,124.74,217.72,560.19,Single-ply,SBD,M
Boys,109.77,7,Jabari Gooch,Silsbee,109.13,188.24,117.93,231.33,537.51,Single-ply,SBD,M
Boys,109.77,DQ,Garrett Johnson,Orange Little Cypress-Mauriceville,106.59,,,,,Single-ply,SBD,M
Boys,109.77,DQ,Elton Woodard,Stafford,109.77,,,,,Single-ply,SBD,M
Boys,109.77,DQ,Aaron Cunningham,Huffman Hargrave,106.96,,,,,Single-ply,SBD,M
Boys,124.74,1,Victor Guevara,Freeport Brazosport,113.67,247.21,158.76,235.87,641.83,Single-ply,SBD,M
Boys,124.74,2,Roe Wilkins,Sour Lake Hardin-Jefferson,113.58,263.08,136.08,229.06,628.23,Single-ply,SBD,M
Boys,124.74,3,Carter Beck,Orange Little Cypress-Mauriceville,119.66,238.14,149.69,240.4,628.23,Single-ply,SBD,M
Boys,124.74,4,Acencion Olalde,Hamshire-Fannett,116.03,238.14,142.88,231.33,612.35,Single-ply,SBD,M
Boys,124.74,5,James Tousha,Liberty,115.94,204.12,133.81,215.46,553.38,Single-ply,SBD,M
Boys,124.74,6,Dustin Willis,Splendora,120.56,249.48,122.47,181.44,553.38,Single-ply,SBD,M
Boys,124.74,7,Johnathan Hageon,Silsbee,118.48,226.8,113.4,206.38,546.58,Single-ply,SBD,M
Boys,124.74,8,Antonio Williams,Freeport Brazosport,117.84,192.78,122.47,201.85,517.1,Single-ply,SBD,M
Boys,124.74,9,Devyn Billiott,La Marque,123.65,206.38,104.33,192.78,503.49,Single-ply,SBD,M
Boys,124.74,10,David McCoy,Sour Lake Hardin-Jefferson,122.83,190.51,108.86,181.44,480.81,Single-ply,SBD,M
Boys,124.74+,1,Patrick Hudson,Silsbee,145.42,290.3,183.7,299.37,773.37,Single-ply,SBD,M
Boys,124.74+,2,William Tinner,La Marque,139.8,226.8,158.76,251.74,637.3,Single-ply,SBD,M
Boys,124.74+,3,Geory Williams,Hamshire-Fannett,129.91,260.82,158.76,215.46,635.03,Single-ply,SBD,M
Boys,124.74+,4,Ashton Martinez,Needville,129.46,226.8,136.08,226.8,589.67,Single-ply,SBD,M
Boys,124.74+,5,Aaron Galitz,Orangefield,138.44,222.26,142.88,208.65,573.79,Single-ply,SBD,M
Boys,124.74+,6,Henry Paredez,Cleveland,132.54,210.92,179.17,163.29,553.38,Single-ply,SBD,M
Boys,124.74+,7,Marlon Ford,La Marque,157.49,204.12,83.91,249.48,537.51,Single-ply,SBD,M
Boys,124.74+,8,Michael Jauer,Sour Lake Hardin-Jefferson,145.6,181.44,108.86,183.7,474,Single-ply,SBD,M
Boys,124.74+,NS,Moses Horn,Stafford,,,,,,Single-ply,SBD,M
Boys,124.74+,NS,Dennis Bardwell,Huffman Hargrave,,,,,,Single-ply,SBD,M
Boys,124.74+,DQ,Josh Williams,Liberty,128.55,,,,,Single-ply,SBD,M
