Division,WeightClassKg,Place,Name,Team,BodyweightKg,Best3SquatKg,Best3BenchKg,Best3DeadliftKg,TotalKg,Equipment,Event,Sex
Boys,51.71,1,Noah Duvall,Springtown,51.35,113.4,61.23,122.47,297.1,Single-ply,SBD,M
Boys,51.71,2,Brian Johnson,Fort Worth Boswell,48.99,108.86,38.56,113.4,260.82,Single-ply,SBD,M
Boys,51.71,3,Otis Jackson,Aledo,49.17,81.65,58.97,90.72,231.33,Single-ply,SBD,M
Boys,51.71,4,Aiden Tune,Azle,46.18,79.38,34.02,83.91,197.31,Single-ply,SBD,M
Boys,51.71,5,Cameron Ross,Aledo,44.27,74.84,43.09,74.84,192.78,Single-ply,SBD,M
Boys,55.79,1,Arlind Queriman,Aledo,55.52,161.03,102.06,165.56,428.64,Single-ply,SBD,M
Boys,55.79,2,Anthony Phimmasone,Fort Worth Boswell,53.25,136.08,65.77,142.88,344.73,Single-ply,SBD,M
Boys,55.79,3,Kyler Tucker,Azle,55.34,117.93,52.16,117.93,288.03,Single-ply,SBD,M
Boys,55.79,4,Nolan Briggs,Fort Worth Boswell,53.98,102.06,61.23,113.4,276.69,Single-ply,SBD,M
Boys,55.79,5,Anthony Tort,Granbury,52.8,95.25,49.9,117.93,263.08,Single-ply,SBD,M
Boys,59.87,1,Holden Fry,Springtown,58.79,136.08,72.57,158.76,367.41,Single-ply,SBD,M
Boys,59.87,2,Alex Simmions,Azle,58.97,136.08,83.91,142.88,362.87,Single-ply,SBD,M
Boys,59.87,3,Koltin Bear,White Settlement Brewer,58.51,124.74,81.65,127.01,333.39,Single-ply,SBD,M
Boys,59.87,4,Brandon Balderrama,Saginaw,56.7,124.74,65.77,127.01,317.51,Single-ply,SBD,M
Boys,59.87,5,Phillip Brooke,Aledo,58.51,117.93,68.04,108.86,294.84,Single-ply,SBD,M
Boys,59.87,DQ,Joel Rayos,Springtown,56.7,,,,,Single-ply,SBD,M
Boys,67.13,1,Jesse Graham,Aledo,66.86,204.12,129.27,185.97,519.36,Single-ply,SBD,M
Boys,67.13,2,Garett Wright,Fort Worth Boswell,65.23,174.63,99.79,181.44,455.86,Single-ply,SBD,M
Boys,67.13,3,Kylen Hart,Weatherford,64.86,163.29,81.65,167.83,412.77,Single-ply,SBD,M
Boys,67.13,4,Chad Agor,Granbury,67.04,149.69,77.11,179.17,405.97,Single-ply,SBD,M
Boys,67.13,5,Edwin Hayden,Fort Worth Boswell,65.32,165.56,70.31,163.29,399.16,Single-ply,SBD,M
Boys,67.13,6,Isaac Ehrich,Fort Worth Chisholm Trail,66.95,151.95,95.25,151.95,399.16,Single-ply,SBD,M
Boys,67.13,7,Gage Wilks,White Settlement Brewer,65.68,133.81,68.04,158.76,360.61,Single-ply,SBD,M
Boys,67.13,DQ,Cooper Wallis,Aledo,67.13,185.97,,,,Single-ply,SBD,M
Boys,74.84,1,Jordan McNeely,Azle,73.75,195.04,127.01,206.38,528.44,Single-ply,SBD,M
Boys,74.84,2,Grayson Porsche,Aledo,73.84,192.78,124.74,204.12,521.63,Single-ply,SBD,M
Boys,74.84,3,Adam Aguirre,Springtown,69.04,158.76,86.18,181.44,426.38,Single-ply,SBD,M
Boys,74.84,4,Justin Davis,White Settlement Brewer,74.48,145.15,99.79,181.44,426.38,Single-ply,SBD,M
Boys,74.84,5,Ceigan Jones,Granbury,69.67,156.49,83.91,176.9,417.3,Single-ply,SBD,M
Boys,74.84,6,Brady Rhodes,Springtown,73.94,147.42,81.65,181.44,410.5,Single-ply,SBD,M
Boys,74.84,7,Hayden Davidson,Azle,74.12,163.29,81.65,158.76,403.7,Single-ply,SBD,M
Boys,74.84,8,Carlos Amaro,Weatherford,68.58,145.15,88.45,161.03,394.63,Single-ply,SBD,M
Boys,74.84,9,Julius Schnieder,Azle,68.76,142.88,90.72,158.76,392.36,Single-ply,SBD,M
Boys,74.84,10,Jaquan Cummings,Springtown,74.21,127.01,81.65,183.7,392.36,Single-ply,SBD,M
Boys,74.84,11,Paul Epright,Fort Worth Chisholm Trail,69.85,145.15,72.57,161.03,378.75,Single-ply,SBD,M
Boys,74.84,DQ,Shawn Holton,Fort Worth Chisholm Trail,68.04,140.61,,,,Single-ply,SBD,M
Boys,74.84,DQ,Jaelyn Herod,White Settlement Brewer,73.57,,,,,Single-ply,SBD,M
Boys,74.84,DQ,James McAfee,Weatherford,73.03,,,,,Single-ply,SBD,M
Boys,82.1,1,Peyton Hetrick,Weatherford,80.74,208.65,113.4,215.46,537.51,Single-ply,SBD,M
Boys,82.1,2,Dom Orozco,Saginaw,79.11,181.44,120.2,222.26,523.9,Single-ply,SBD,M
Boys,82.1,3,Joshua Mork,Fort Worth Boswell,81.1,190.51,124.74,199.58,514.83,Single-ply,SBD,M
Boys,82.1,4,Collin Reyes,Fort Worth Chisholm Trail,80.65,170.1,108.86,226.8,505.76,Single-ply,SBD,M
Boys,82.1,5,Cameron Harmon,Azle,81.37,199.58,120.2,185.97,505.76,Single-ply,SBD,M
Boys,82.1,6,Michael Trull,Granbury,81.28,183.7,115.67,195.04,494.42,Single-ply,SBD,M
Boys,82.1,7,Christian Martin,Fort Worth Chisholm Trail,81.28,174.63,115.67,190.51,480.81,Single-ply,SBD,M
Boys,82.1,8,River Hall,Weatherford,78.11,174.63,117.93,185.97,478.54,Single-ply,SBD,M
Boys,82.1,9,Zach Watson,Springtown,75.93,161.03,102.06,185.97,449.06,Single-ply,SBD,M
Boys,82.1,10,Jared Wheeler #2,Azle,80.29,140.61,106.59,192.78,439.98,Single-ply,SBD,M
Boys,82.1,DQ,Brent Rhodes,Springtown,81.47,,,,,Single-ply,SBD,M
Boys,89.81,1,Braden Robertson,Weatherford,83.73,251.74,149.69,231.33,632.76,Single-ply,SBD,M
Boys,89.81,2,Damon Williams,Fort Worth Boswell,87,226.8,142.88,238.14,607.81,Single-ply,SBD,M
Boys,89.81,3,Blake Raines,White Settlement Brewer,89.54,226.8,149.69,231.33,607.81,Single-ply,SBD,M
Boys,89.81,4,Rishedi Tshitoko,Saginaw,82.28,208.65,120.2,240.4,569.26,Single-ply,SBD,M
Boys,89.81,5,Keyshawn Gbanqui,Fort Worth Chisholm Trail,86.91,210.92,129.27,226.8,566.99,Single-ply,SBD,M
Boys,89.81,6,Jameel Mainor,Fort Worth Chisholm Trail,87.36,219.99,127.01,229.06,576.06,Single-ply,SBD,M
Boys,89.81,7,Griffen Rhea,Saginaw,86.36,213.19,124.74,208.65,546.58,Single-ply,SBD,M
Boys,89.81,8,Drake Sanders,Granbury,89.81,188.24,124.74,210.92,523.9,Single-ply,SBD,M
Boys,89.81,9,Sukhman Singh,Granbury,89.81,206.38,111.13,197.31,514.83,Single-ply,SBD,M
Boys,89.81,10,Patrick Hayes,Saginaw,86.73,183.7,115.67,192.78,492.15,Single-ply,SBD,M
Boys,89.81,DQ,Guillermo Pando,Springtown,85,215.46,,,,Single-ply,SBD,M
Boys,99.79,1,Jake Beaird,Weatherford,94.35,272.16,145.15,233.6,650.91,Single-ply,SBD,M
Boys,99.79,2,Travis Williams,Fort Worth Chisholm Trail,99.79,242.67,142.88,226.8,612.35,Single-ply,SBD,M
Boys,99.79,3,Derrick Munoz,Saginaw,96.8,240.4,140.61,229.06,610.08,Single-ply,SBD,M
Boys,99.79,4,Jason Umanzor,Granbury,97.7,242.67,136.08,231.33,610.08,Single-ply,SBD,M
Boys,99.79,5,Elijah Dean,Weatherford,92.35,229.06,138.35,201.85,569.26,Single-ply,SBD,M
Boys,99.79,6,Ignacio Gonzalez,Saginaw,99.16,213.19,117.93,213.19,544.31,Single-ply,SBD,M
Boys,99.79,7,Landon Rhodes,Saginaw,96.8,208.65,102.06,199.58,510.29,Single-ply,SBD,M
Boys,109.77,1,Raul Sandoval,Granbury,107.5,272.16,151.95,249.48,673.58,Single-ply,SBD,M
Boys,109.77,2,Kyrese McFarland,Fort Worth Boswell,101.33,226.8,131.54,208.65,566.99,Single-ply,SBD,M
Boys,109.77,3,Coleton Reinhardt,Saginaw,108.86,208.65,122.47,219.99,551.11,Single-ply,SBD,M
Boys,109.77,4,Braxton Weger,Granbury,107.14,199.58,129.27,215.46,544.31,Single-ply,SBD,M
Boys,109.77,5,Tyler Jensen,Azle,107.14,213.19,136.08,195.04,544.31,Single-ply,SBD,M
Boys,109.77,6,Cash Dejion,Saginaw,101.06,190.51,122.47,172.37,485.34,Single-ply,SBD,M
Boys,109.77,7,Jet Barton,Aledo,101.33,176.9,129.27,174.63,480.81,Single-ply,SBD,M
Boys,109.77,8,Cole Chapman,White Settlement Brewer,101.97,163.29,102.06,181.44,446.79,Single-ply,SBD,M
Boys,109.77,9,Ricky Bribiesca,White Settlement Brewer,104.33,165.56,90.72,158.76,415.04,Single-ply,SBD,M
Boys,109.77,DQ,Trey Glasker,Fort Worth Chisholm Trail,102.06,,,,,Single-ply,SBD,M
Boys,109.77,DQ,Reynaldo Valenzuela,Weatherford,104.6,215.46,113.4,,,Single-ply,SBD,M
Boys,124.74,1,Andrew Lutz,Azle,117.93,267.62,142.88,208.65,619.15,Single-ply,SBD,M
Boys,124.74,2,Max Michaels,Fort Worth Boswell,121.83,235.87,145.15,215.46,596.47,Single-ply,SBD,M
Boys,124.74,3,Justin Watson #1,Fort Worth Boswell,122.29,226.8,145.15,208.65,580.6,Single-ply,SBD,M
Boys,124.74,4,Gavin Gardner-Knight,Aledo,120.56,199.58,151.95,197.31,548.85,Single-ply,SBD,M
Boys,124.74,5,Bryan McWhorter,Springtown,117.75,181.44,102.06,213.19,496.68,Single-ply,SBD,M
Boys,124.74,6,Gilbert Cortinas,Saginaw,124.38,192.78,115.67,188.24,496.68,Single-ply,SBD,M
Boys,124.74,7,Alexander Frithiof,Springtown,113.22,181.44,127.01,181.44,489.88,Single-ply,SBD,M
Boys,124.74,8,Colby Thomas,Aledo,110.86,163.29,129.27,183.7,476.27,Single-ply,SBD,M
Boys,124.74+,1,Jake Allsbrooks,Fort Worth Boswell,144.24,331.12,147.42,204.12,682.66,Single-ply,SBD,M
Boys,124.74+,2,Fernando Sanchez,Granbury,144.88,272.16,158.76,231.33,662.24,Single-ply,SBD,M
Boys,124.74+,3,Rylan Smith,Azle,136.26,251.74,115.67,213.19,580.6,Single-ply,SBD,M
Boys,124.74+,4,Jonathen Renteria,Weatherford,135.71,219.99,129.27,213.19,562.45,Single-ply,SBD,M
Boys,124.74+,5,Max Dunn,Fort Worth Chisholm Trail,134.35,204.12,133.81,188.24,526.17,Single-ply,SBD,M
Boys,124.74+,6,Carlos Aguilar #4,Granbury,167.38,204.12,108.86,204.12,517.1,Single-ply,SBD,M
Boys,124.74+,7,Joseph Olmos,Fort Worth Chisholm Trail,131.9,201.85,113.4,185.97,501.22,Single-ply,SBD,M
Boys,124.74+,DQ,Christian Ramirez #4,White Settlement Brewer,133.72,,,,,Single-ply,SBD,M
